<?xml version="1.0" encoding="UTF-8" standalone="no"?>
<!-- Created with Inkscape (http://www.inkscape.org/) -->

<svg
   xmlns:osb="http://www.openswatchbook.org/uri/2009/osb"
   xmlns:dc="http://purl.org/dc/elements/1.1/"
   xmlns:cc="http://creativecommons.org/ns#"
   xmlns:rdf="http://www.w3.org/1999/02/22-rdf-syntax-ns#"
   xmlns:svg="http://www.w3.org/2000/svg"
   xmlns="http://www.w3.org/2000/svg"
   xmlns:xlink="http://www.w3.org/1999/xlink"
   xmlns:sodipodi="http://sodipodi.sourceforge.net/DTD/sodipodi-0.dtd"
   xmlns:inkscape="http://www.inkscape.org/namespaces/inkscape"
   width="256"
   height="256"
   viewBox="0 0 256 256.00001"
   version="1.1"
   id="svg958"
   inkscape:version="0.92.5 (2060ec1f9f, 2020-04-08)"
   sodipodi:docname="decoration.svg">
  <defs
     id="defs952">
    <linearGradient
       inkscape:collect="always"
       id="linearGradient1203">
      <stop
         style="stop-color:#000000;stop-opacity:0.25210086"
         offset="0"
         id="stop1197" />
      <stop
         id="stop1199"
         offset="0.33310309"
         style="stop-color:#000000;stop-opacity:0.15686275" />
      <stop
         style="stop-color:#000000;stop-opacity:0"
         offset="1"
         id="stop1201" />
    </linearGradient>
    <linearGradient
       id="linearGradient1195"
       inkscape:collect="always">
      <stop
         id="stop1191"
         offset="0"
         style="stop-color:#000000;stop-opacity:0.15686275" />
      <stop
         id="stop1193"
         offset="1"
         style="stop-color:#000000;stop-opacity:0" />
    </linearGradient>
    <linearGradient
       id="linearGradient955"
       inkscape:collect="always">
      <stop
         id="stop951"
         offset="0"
         style="stop-color:#000000;stop-opacity:0.3764706" />
      <stop
         style="stop-color:#000000;stop-opacity:0.24705882"
         offset="0.33310309"
         id="stop957" />
      <stop
         id="stop953"
         offset="1"
         style="stop-color:#000000;stop-opacity:0" />
    </linearGradient>
    <linearGradient
       inkscape:collect="always"
       id="linearGradient947">
      <stop
         style="stop-color:#000000;stop-opacity:0.24705882"
         offset="0"
         id="stop943" />
      <stop
         style="stop-color:#000000;stop-opacity:0"
         offset="1"
         id="stop945" />
    </linearGradient>
    <linearGradient
       id="linearGradient1018"
       osb:paint="solid">
      <stop
         style="stop-color:#e3e825;stop-opacity:1;"
         offset="0"
         id="stop1015" />
    </linearGradient>
    <linearGradient
       id="linearGradient995"
       osb:paint="solid">
      <stop
         style="stop-color:#000000;stop-opacity:1;"
         offset="0"
         id="stop993" />
    </linearGradient>
    <linearGradient
       id="linearGradient907"
       osb:paint="solid">
      <stop
         style="stop-color:#020202;stop-opacity:1;"
         offset="0"
         id="stop905" />
    </linearGradient>
    <linearGradient
       id="linearGradient901"
       osb:paint="solid">
      <stop
         style="stop-color:#020202;stop-opacity:1;"
         offset="0"
         id="stop899" />
    </linearGradient>
    <linearGradient
       id="linearGradient895"
       osb:paint="solid">
      <stop
         style="stop-color:#020202;stop-opacity:1;"
         offset="0"
         id="stop893" />
    </linearGradient>
    <linearGradient
       id="linearGradient856"
       osb:paint="solid">
      <stop
         style="stop-color:#4a4a4a;stop-opacity:1;"
         offset="0"
         id="stop854" />
    </linearGradient>
    <linearGradient
       id="borderlo"
       osb:paint="solid">
      <stop
         style="stop-color:#1c1c1c;stop-opacity:1;"
         offset="0"
         id="stop848" />
    </linearGradient>
    <linearGradient
       id="borderhi"
       osb:paint="solid">
      <stop
         style="stop-color:#565656;stop-opacity:1;"
         offset="0"
         id="stop842" />
    </linearGradient>
    <linearGradient
       id="base-3"
       osb:paint="solid">
      <stop
         style="stop-color:#3a3a3a;stop-opacity:1;"
         offset="0"
         id="stop1505" />
    </linearGradient>
    <linearGradient
       inkscape:collect="always"
       xlink:href="#linearGradient947"
       id="linearGradient871"
       x1="116.57143"
       y1="976.73358"
       x2="123.57143"
       y2="976.73358"
       gradientUnits="userSpaceOnUse"
       gradientTransform="matrix(1.4285714,0,0,1,-34.959132,2.0382558)" />
    <linearGradient
       inkscape:collect="always"
       xlink:href="#linearGradient947"
       id="linearGradient951"
       gradientUnits="userSpaceOnUse"
       x1="116.57143"
       y1="976.73358"
       x2="123.57143"
       y2="976.73358"
       gradientTransform="matrix(1.4285714,0,0,1,-1032.5455,-895.8945)" />
    <linearGradient
       inkscape:collect="always"
       xlink:href="#linearGradient947"
       id="linearGradient1026"
       gradientUnits="userSpaceOnUse"
       gradientTransform="matrix(1.4285714,0,0,1,-34.959132,2.0382558)"
       x1="116.57143"
       y1="976.73358"
       x2="123.57143"
       y2="976.73358" />
    <linearGradient
       inkscape:collect="always"
       xlink:href="#linearGradient947"
       id="linearGradient1041"
       gradientUnits="userSpaceOnUse"
       gradientTransform="matrix(1.4285714,0,0,1,-34.959132,2.0382558)"
       x1="116.57143"
       y1="976.73358"
       x2="123.57143"
       y2="976.73358" />
    <radialGradient
       inkscape:collect="always"
       xlink:href="#linearGradient955"
       id="radialGradient1023"
       cx="97.037781"
       cy="1018.6262"
       fx="97.037781"
       fy="1018.6262"
       r="7.5"
       gradientUnits="userSpaceOnUse"
       gradientTransform="matrix(1.9513567e-6,1.9999998,-2.0000002,1.9513571e-6,2136.234,-45.64041)" />
    <radialGradient
       inkscape:collect="always"
       xlink:href="#linearGradient955"
       id="radialGradient1057"
       gradientUnits="userSpaceOnUse"
       gradientTransform="matrix(1.9513567e-6,1.9999998,-2.0000002,1.9513571e-6,2136.234,-45.64041)"
       cx="97.037781"
       cy="1018.6262"
       fx="97.037781"
       fy="1018.6262"
       r="7.5" />
    <radialGradient
       inkscape:collect="always"
       xlink:href="#linearGradient955"
       id="radialGradient1079"
       gradientUnits="userSpaceOnUse"
       gradientTransform="matrix(1.9513567e-6,-1.9999998,-2.0000002,-1.9513571e-6,2135.3675,1118.0138)"
       cx="97.037781"
       cy="1018.6262"
       fx="97.037781"
       fy="1018.6262"
       r="7.5" />
    <linearGradient
       inkscape:collect="always"
       xlink:href="#linearGradient947"
       id="linearGradient1093"
       gradientUnits="userSpaceOnUse"
       gradientTransform="matrix(1.4285714,0,0,0.56249999,-63.414736,388.02331)"
       x1="116.57143"
       y1="976.73358"
       x2="123.57143"
       y2="976.73358" />
    <radialGradient
       inkscape:collect="always"
       xlink:href="#linearGradient955"
       id="radialGradient983"
       gradientUnits="userSpaceOnUse"
       gradientTransform="matrix(1.9513567e-6,-1.9999998,-2.0000002,-1.9513571e-6,2135.3675,1118.0138)"
       cx="97.037781"
       cy="1018.6262"
       fx="97.037781"
       fy="1018.6262"
       r="7.5" />
    <linearGradient
       inkscape:collect="always"
       xlink:href="#linearGradient947"
       id="linearGradient985"
       gradientUnits="userSpaceOnUse"
       gradientTransform="matrix(1.4285714,0,0,0.56249999,-63.414736,388.02331)"
       x1="116.57143"
       y1="976.73358"
       x2="123.57143"
       y2="976.73358" />
    <linearGradient
       inkscape:collect="always"
       xlink:href="#linearGradient1195"
       id="linearGradient1022"
       gradientUnits="userSpaceOnUse"
       gradientTransform="matrix(1.4285714,0,0,1,-34.959132,2.0382558)"
       x1="116.57143"
       y1="976.73358"
       x2="123.57143"
       y2="976.73358" />
    <linearGradient
       inkscape:collect="always"
       xlink:href="#linearGradient1195"
       id="linearGradient1024"
       gradientUnits="userSpaceOnUse"
       gradientTransform="matrix(1.4285714,0,0,1,-34.959132,2.0382558)"
       x1="116.57143"
       y1="976.73358"
       x2="123.57143"
       y2="976.73358" />
    <linearGradient
       inkscape:collect="always"
       xlink:href="#linearGradient1195"
       id="linearGradient1027"
       gradientUnits="userSpaceOnUse"
       gradientTransform="matrix(1.4285714,0,0,1,-34.959132,2.0382558)"
       x1="116.57143"
       y1="976.73358"
       x2="123.57143"
       y2="976.73358" />
    <radialGradient
       inkscape:collect="always"
       xlink:href="#linearGradient1203"
       id="radialGradient1029"
       gradientUnits="userSpaceOnUse"
       gradientTransform="matrix(1.9513567e-6,1.9999998,-2.0000002,1.9513571e-6,2136.234,-45.64041)"
       cx="97.037781"
       cy="1018.6262"
       fx="97.037781"
       fy="1018.6262"
       r="7.5" />
    <radialGradient
       inkscape:collect="always"
       xlink:href="#linearGradient1203"
       id="radialGradient1031"
       gradientUnits="userSpaceOnUse"
       gradientTransform="matrix(1.9513567e-6,1.9999998,-2.0000002,1.9513571e-6,2136.234,-45.64041)"
       cx="97.037781"
       cy="1018.6262"
       fx="97.037781"
       fy="1018.6262"
       r="7.5" />
    <linearGradient
       inkscape:collect="always"
       xlink:href="#linearGradient1195"
       id="linearGradient1033"
       gradientUnits="userSpaceOnUse"
       gradientTransform="matrix(1.394557,0,0,1,-1028.3423,-895.8945)"
       x1="116.57143"
       y1="976.73358"
       x2="123.57143"
       y2="976.73358" />
    <radialGradient
       inkscape:collect="always"
       xlink:href="#linearGradient1203"
       id="radialGradient1035"
       gradientUnits="userSpaceOnUse"
       gradientTransform="matrix(1.9513567e-6,-1.9999998,-2.0000002,-1.9513571e-6,2135.3675,1118.0138)"
       cx="97.037781"
       cy="1018.6262"
       fx="97.037781"
       fy="1018.6262"
       r="7.5" />
    <linearGradient
       inkscape:collect="always"
       xlink:href="#linearGradient1195"
       id="linearGradient1037"
       gradientUnits="userSpaceOnUse"
       gradientTransform="matrix(1.4285714,0,0,0.56249999,-63.414736,388.02331)"
       x1="116.57143"
       y1="976.73358"
       x2="123.57143"
       y2="976.73358" />
    <radialGradient
       inkscape:collect="always"
       xlink:href="#linearGradient1203"
       id="radialGradient1039"
       gradientUnits="userSpaceOnUse"
       gradientTransform="matrix(1.9513567e-6,-1.9999998,-2.0000002,-1.9513571e-6,2135.3675,1118.0138)"
       cx="97.037781"
       cy="1018.6262"
       fx="97.037781"
       fy="1018.6262"
       r="7.5" />
    <linearGradient
       inkscape:collect="always"
       xlink:href="#linearGradient1195"
       id="linearGradient1042"
       gradientUnits="userSpaceOnUse"
       gradientTransform="matrix(1.4285714,0,0,0.56249999,-63.414736,388.02331)"
       x1="116.57143"
       y1="976.73358"
       x2="123.57143"
       y2="976.73358" />
  </defs>
  <sodipodi:namedview
     id="base"
     pagecolor="#ffffff"
     bordercolor="#666666"
     borderopacity="1.0"
     inkscape:pageopacity="0.0"
     inkscape:pageshadow="2"
     inkscape:zoom="22.325297"
     inkscape:cx="158.56997"
     inkscape:cy="109.0892"
     inkscape:document-units="px"
     inkscape:current-layer="layer1"
     showgrid="true"
     units="px"
     inkscape:showpageshadow="false"
     inkscape:pagecheckerboard="true"
     inkscape:snap-bbox="true"
     inkscape:bbox-paths="true"
     inkscape:bbox-nodes="false"
     inkscape:snap-bbox-edge-midpoints="false"
     inkscape:snap-bbox-midpoints="true"
     inkscape:object-paths="true"
     inkscape:snap-intersection-paths="true"
     showguides="true"
     inkscape:guide-bbox="true">
    <inkscape:grid
       id="grid949"
       type="xygrid" />
  </sodipodi:namedview>
  <metadata
     id="metadata955">
    <rdf:RDF>
      <cc:Work
         rdf:about="">
        <dc:format>image/svg+xml</dc:format>
        <dc:type
           rdf:resource="http://purl.org/dc/dcmitype/StillImage" />
        <dc:title />
      </cc:Work>
    </rdf:RDF>
  </metadata>
  <g
     inkscape:label="Layer 1"
     inkscape:groupmode="layer"
     id="layer1"
     transform="translate(0,-866.51965)">
    <rect
       style="opacity:1;fill:#11171c;fill-opacity:1;fill-rule:evenodd;stroke:none;stroke-width:15.00000095;stroke-linecap:square;stroke-linejoin:round;stroke-miterlimit:4;stroke-dasharray:none;stroke-opacity:1;paint-order:normal"
       id="decoration-center"
       width="48"
       height="48"
       x="42"
       y="953.51965" />
    <g
       id="decoration-right"
       transform="translate(-36.571472,-1.2521396)">
      <rect
         y="954.77179"
         x="131.57147"
         height="48"
         width="10"
         id="rect2299"
         style="opacity:1;fill:url(#linearGradient871);fill-opacity:1.0;fill-rule:evenodd;stroke:none;stroke-width:15.00000095;stroke-linecap:square;stroke-linejoin:round;stroke-miterlimit:4;stroke-dasharray:none;stroke-opacity:1;paint-order:normal" />
      <rect
         style="opacity:1;fill:#11171c;fill-opacity:1;fill-rule:evenodd;stroke:none;stroke-width:15.00000095;stroke-linecap:square;stroke-linejoin:round;stroke-miterlimit:4;stroke-dasharray:none;stroke-opacity:1;paint-order:normal"
         id="rect2289"
         width="5"
         height="48"
         x="126.57148"
         y="954.77179" />
    </g>
    <g
       transform="matrix(-1,0,0,1,168.57147,-1.2521396)"
       id="decoration-left">
      <rect
         style="opacity:1;fill:url(#linearGradient1026);fill-opacity:1.0;fill-rule:evenodd;stroke:none;stroke-width:15.00000095;stroke-linecap:square;stroke-linejoin:round;stroke-miterlimit:4;stroke-dasharray:none;stroke-opacity:1;paint-order:normal"
         id="rect1017"
         width="10"
         height="48"
         x="131.57147"
         y="954.77179" />
      <rect
         y="954.77179"
         x="126.57148"
         height="48"
         width="4.9999981"
         id="rect1019"
         style="opacity:1;fill:#11171c;fill-opacity:1;fill-rule:evenodd;stroke:none;stroke-width:15.00000095;stroke-linecap:square;stroke-linejoin:round;stroke-miterlimit:4;stroke-dasharray:none;stroke-opacity:1;paint-order:normal" />
    </g>
    <g
       transform="rotate(90,84.911806,959.85998)"
       id="decoration-bottom">
      <rect
         style="opacity:1;fill:url(#linearGradient1041);fill-opacity:1.0;fill-rule:evenodd;stroke:none;stroke-width:15.00000095;stroke-linecap:square;stroke-linejoin:round;stroke-miterlimit:4;stroke-dasharray:none;stroke-opacity:1;paint-order:normal"
         id="rect1033"
         width="10"
         height="48"
         x="131.57147"
         y="954.77179" />
      <rect
         y="954.77179"
         x="126.57148"
         height="47.999996"
         width="5.0000038"
         id="rect1035"
         style="opacity:1;fill:#11171c;fill-opacity:1;fill-rule:evenodd;stroke:none;stroke-width:15.00000095;stroke-linecap:square;stroke-linejoin:round;stroke-miterlimit:4;stroke-dasharray:none;stroke-opacity:1;paint-order:normal" />
    </g>
    <g
       id="decoration-bottomright"
       transform="translate(-8.9824237,-13.437512)">
      <g
         id="g996"
         transform="matrix(1,0,0,-1,-24.85742,1963.6858)">
        <rect
           style="opacity:1;fill:#11171c;fill-opacity:1;fill-rule:evenodd;stroke:none;stroke-width:15.00000191;stroke-linecap:square;stroke-linejoin:round;stroke-miterlimit:4;stroke-dasharray:none;stroke-opacity:1;paint-order:normal"
           id="rect994"
           width="5"
           height="4.9999995"
           x="123.83984"
           y="943.72864" />
      </g>
      <path
         id="rect1015"
         transform="translate(0,866.51965)"
         d="m 103.98242,148.4375 v 5 h -4.999998 v 10 h 14.999998 v -15 z"
         style="opacity:1;fill:url(#radialGradient1023);fill-opacity:1.0;fill-rule:evenodd;stroke:none;stroke-width:15;stroke-linecap:square;stroke-linejoin:round;stroke-miterlimit:4;stroke-dasharray:none;stroke-opacity:1;paint-order:normal"
         inkscape:connector-curvature="0" />
    </g>
    <g
       transform="matrix(-1,0,0,1,140.98242,-13.437516)"
       id="decoration-bottomleft">
      <g
         transform="matrix(1,0,0,-1,-24.85742,1963.6858)"
         id="g1047">
        <rect
           y="943.72864"
           x="123.83985"
           height="5.0000038"
           width="4.9999962"
           id="rect1045"
           style="opacity:1;fill:#11171c;fill-opacity:1;fill-rule:evenodd;stroke:none;stroke-width:15.00000191;stroke-linecap:square;stroke-linejoin:round;stroke-miterlimit:4;stroke-dasharray:none;stroke-opacity:1;paint-order:normal" />
      </g>
      <path
         inkscape:connector-curvature="0"
         style="opacity:1;fill:url(#radialGradient1057);fill-opacity:1.0;fill-rule:evenodd;stroke:none;stroke-width:15;stroke-linecap:square;stroke-linejoin:round;stroke-miterlimit:4;stroke-dasharray:none;stroke-opacity:1;paint-order:normal"
         d="m 103.98242,148.4375 v 5 h -4.999998 v 10 h 14.999998 v -15 z"
         transform="translate(0,866.51965)"
         id="path1049" />
    </g>
    <g
       id="decoration-top"
       transform="translate(-14.839081,55.504818)">
      <rect
         transform="rotate(-90)"
         style="opacity:1;fill:url(#linearGradient951);fill-opacity:1;fill-rule:evenodd;stroke:none;stroke-width:15.00000095;stroke-linecap:square;stroke-linejoin:round;stroke-miterlimit:4;stroke-dasharray:none;stroke-opacity:1;paint-order:normal"
         id="rect939"
         width="10"
         height="48"
         x="-866.01483"
         y="56.839081" />
      <rect
         transform="rotate(-90)"
         y="56.839081"
         x="-897.01483"
         height="48"
         width="31"
         id="rect941"
         style="opacity:1;fill:#11171c;fill-opacity:1;fill-rule:evenodd;stroke:none;stroke-width:17.04772949;stroke-linecap:square;stroke-linejoin:round;stroke-miterlimit:4;stroke-dasharray:none;stroke-opacity:1;paint-order:normal" />
      <rect
         transform="rotate(-90)"
         style="opacity:1;fill:#41ad0b;fill-opacity:1;fill-rule:evenodd;stroke:none;stroke-width:15.00000095;stroke-linecap:square;stroke-linejoin:round;stroke-miterlimit:4;stroke-dasharray:none;stroke-opacity:1;paint-order:normal"
         id="rect943"
         width="1"
         height="48"
         x="-898.01483"
         y="56.839081" />
      <rect
         y="56.839081"
         x="-867.01483"
         height="48"
         width="1"
         id="rect945"
         style="opacity:1;fill:none;fill-opacity:1;fill-rule:evenodd;stroke:none;stroke-width:15.00000095;stroke-linecap:square;stroke-linejoin:round;stroke-miterlimit:4;stroke-dasharray:none;stroke-opacity:1;paint-order:normal"
         transform="rotate(-90)" />
    </g>
    <g
       id="decoration-topright"
       transform="translate(-8.1158676,2.5837369)">
      <path
         inkscape:connector-curvature="0"
         style="opacity:1;fill:url(#radialGradient1079);fill-opacity:1.0;fill-rule:evenodd;stroke:none;stroke-width:15;stroke-linecap:square;stroke-linejoin:round;stroke-miterlimit:4;stroke-dasharray:none;stroke-opacity:1;paint-order:normal"
         d="m 103.11587,923.93591 v -5 h -4.999999 v -10 h 14.999999 v 15 z"
         id="path1071" />
      <rect
         y="918.93597"
         x="98.115868"
         height="32"
         width="5"
         id="rect958"
         style="opacity:1;fill:#11171c;fill-opacity:1;fill-rule:evenodd;stroke:none;stroke-width:15.78313065;stroke-linecap:square;stroke-linejoin:round;stroke-miterlimit:4;stroke-dasharray:none;stroke-opacity:1;paint-order:normal" />
      <rect
         style="opacity:1;fill:url(#linearGradient1093);fill-opacity:1.0;fill-rule:evenodd;stroke:none;stroke-width:15.58845901;stroke-linecap:square;stroke-linejoin:round;stroke-miterlimit:4;stroke-dasharray:none;stroke-opacity:1;paint-order:normal"
         id="rect1085"
         width="10"
         height="27"
         x="103.11587"
         y="923.93591" />
    </g>
    <g
       transform="matrix(-1,0,0,1,140.11587,2.5837369)"
       id="decoration-topleft">
      <path
         id="path969"
         d="m 103.11587,923.93591 v -5 h -4.999999 v -10 h 14.999999 v 15 z"
         style="opacity:1;fill:url(#radialGradient983);fill-opacity:1;fill-rule:evenodd;stroke:none;stroke-width:15;stroke-linecap:square;stroke-linejoin:round;stroke-miterlimit:4;stroke-dasharray:none;stroke-opacity:1;paint-order:normal"
         inkscape:connector-curvature="0" />
      <rect
         style="opacity:1;fill:#11171c;fill-opacity:1;fill-rule:evenodd;stroke:none;stroke-width:15.78312969;stroke-linecap:square;stroke-linejoin:round;stroke-miterlimit:4;stroke-dasharray:none;stroke-opacity:1;paint-order:normal"
         id="rect971"
         width="5.0000024"
         height="32"
         x="98.115868"
         y="918.93597" />
      <rect
         y="923.93591"
         x="103.11587"
         height="27"
         width="10"
         id="rect977"
         style="opacity:1;fill:url(#linearGradient985);fill-opacity:1.0;fill-rule:evenodd;stroke:none;stroke-width:15.58845901;stroke-linecap:square;stroke-linejoin:round;stroke-miterlimit:4;stroke-dasharray:none;stroke-opacity:1;paint-order:normal" />
    </g>
    <rect
       style="opacity:1;fill:#11171c;fill-opacity:1;fill-rule:evenodd;stroke:none;stroke-width:15.00000095;stroke-linecap:square;stroke-linejoin:round;stroke-miterlimit:4;stroke-dasharray:none;stroke-opacity:1;paint-order:normal"
       id="decoration-inactive-center"
       width="48"
       height="48"
       x="162"
       y="953.51965" />
    <g
       id="decoration-inactive-right"
       transform="translate(83.428528,-1.2521396)">
      <rect
         y="954.77179"
         x="131.57147"
         height="48"
         width="10"
         id="rect961"
         style="opacity:1;fill:url(#linearGradient1022);fill-opacity:1.0;fill-rule:evenodd;stroke:none;stroke-width:15.00000095;stroke-linecap:square;stroke-linejoin:round;stroke-miterlimit:4;stroke-dasharray:none;stroke-opacity:1;paint-order:normal" />
      <rect
         style="opacity:1;fill:#11171c;fill-opacity:1;fill-rule:evenodd;stroke:none;stroke-width:15.00000095;stroke-linecap:square;stroke-linejoin:round;stroke-miterlimit:4;stroke-dasharray:none;stroke-opacity:1;paint-order:normal"
         id="rect963"
         width="5"
         height="48"
         x="126.57148"
         y="954.77179" />
    </g>
    <g
       transform="matrix(-1,0,0,1,288.57147,-1.2521396)"
       id="decoration-inactive-left">
      <rect
         style="opacity:1;fill:url(#linearGradient1024);fill-opacity:1;fill-rule:evenodd;stroke:none;stroke-width:15.00000095;stroke-linecap:square;stroke-linejoin:round;stroke-miterlimit:4;stroke-dasharray:none;stroke-opacity:1;paint-order:normal"
         id="rect967"
         width="10"
         height="48"
         x="131.57147"
         y="954.77179" />
      <rect
         y="954.77179"
         x="126.57148"
         height="48"
         width="4.9999981"
         id="rect969"
         style="opacity:1;fill:#11171c;fill-opacity:1;fill-rule:evenodd;stroke:none;stroke-width:15.00000095;stroke-linecap:square;stroke-linejoin:round;stroke-miterlimit:4;stroke-dasharray:none;stroke-opacity:1;paint-order:normal" />
    </g>
    <g
       transform="rotate(90,144.91181,1019.86)"
       id="decoration-inactive-bottom">
      <rect
         style="opacity:1;fill:url(#linearGradient1027);fill-opacity:1.0;fill-rule:evenodd;stroke:none;stroke-width:15.00000095;stroke-linecap:square;stroke-linejoin:round;stroke-miterlimit:4;stroke-dasharray:none;stroke-opacity:1;paint-order:normal"
         id="rect973"
         width="10"
         height="48"
         x="131.57147"
         y="954.77179" />
      <rect
         y="954.77179"
         x="126.57148"
         height="47.999996"
         width="5.0000038"
         id="rect975"
         style="opacity:1;fill:#11171c;fill-opacity:1;fill-rule:evenodd;stroke:none;stroke-width:15.00000095;stroke-linecap:square;stroke-linejoin:round;stroke-miterlimit:4;stroke-dasharray:none;stroke-opacity:1;paint-order:normal" />
    </g>
    <g
       id="decoration-inactive-bottomright"
       transform="translate(111.01758,-13.437512)">
      <g
         id="g981"
         transform="matrix(1,0,0,-1,-24.85742,1963.6858)">
        <rect
           style="opacity:1;fill:#11171c;fill-opacity:1;fill-rule:evenodd;stroke:none;stroke-width:15.00000191;stroke-linecap:square;stroke-linejoin:round;stroke-miterlimit:4;stroke-dasharray:none;stroke-opacity:1;paint-order:normal"
           id="rect979"
           width="5"
           height="4.9999995"
           x="123.83984"
           y="943.72864" />
      </g>
      <path
         id="path983"
         transform="translate(0,866.51965)"
         d="m 103.98242,148.4375 v 5 h -4.999998 v 10 h 14.999998 v -15 z"
         style="opacity:1;fill:url(#radialGradient1029);fill-opacity:1.0;fill-rule:evenodd;stroke:none;stroke-width:15;stroke-linecap:square;stroke-linejoin:round;stroke-miterlimit:4;stroke-dasharray:none;stroke-opacity:1;paint-order:normal"
         inkscape:connector-curvature="0" />
    </g>
    <g
       transform="matrix(-1,0,0,1,260.98242,-13.437516)"
       id="decoration-inactive-bottomleft">
      <g
         transform="matrix(1,0,0,-1,-24.85742,1963.6858)"
         id="g989">
        <rect
           y="943.72864"
           x="123.83985"
           height="5.0000038"
           width="4.9999962"
           id="rect987"
           style="opacity:1;fill:#11171c;fill-opacity:1;fill-rule:evenodd;stroke:none;stroke-width:15.00000191;stroke-linecap:square;stroke-linejoin:round;stroke-miterlimit:4;stroke-dasharray:none;stroke-opacity:1;paint-order:normal" />
      </g>
      <path
         inkscape:connector-curvature="0"
         style="opacity:1;fill:url(#radialGradient1031);fill-opacity:1.0;fill-rule:evenodd;stroke:none;stroke-width:15;stroke-linecap:square;stroke-linejoin:round;stroke-miterlimit:4;stroke-dasharray:none;stroke-opacity:1;paint-order:normal"
         d="m 103.98242,148.4375 v 5 h -4.999998 v 10 h 14.999998 v -15 z"
         transform="translate(0,866.51965)"
         id="path991" />
    </g>
    <g
       id="decoration-inactive-top"
       transform="matrix(1,0,0,1.0243903,105.16092,34.62642)"
       style="stroke-width:0.98802352">
      <rect
         transform="rotate(-90)"
         style="opacity:1;fill:url(#linearGradient1033);fill-opacity:1;fill-rule:evenodd;stroke:none;stroke-width:14.82035351;stroke-linecap:square;stroke-linejoin:round;stroke-miterlimit:4;stroke-dasharray:none;stroke-opacity:1;paint-order:normal"
         id="rect995"
         width="9.7618999"
         height="48"
         x="-865.77667"
         y="56.839081" />
      <rect
         transform="rotate(-90)"
         y="56.839081"
         x="-897.01477"
         height="48"
         width="31.238092"
         id="rect997"
         style="opacity:1;fill:#11171c;fill-opacity:1;fill-rule:evenodd;stroke:none;stroke-width:16.84355736;stroke-linecap:square;stroke-linejoin:round;stroke-miterlimit:4;stroke-dasharray:none;stroke-opacity:1;paint-order:normal" />
      <rect
         y="56.839081"
         x="-867.01483"
         height="48"
         width="1"
         id="rect1001"
         style="opacity:1;fill:none;fill-opacity:1;fill-rule:evenodd;stroke:none;stroke-width:14.82035351;stroke-linecap:square;stroke-linejoin:round;stroke-miterlimit:4;stroke-dasharray:none;stroke-opacity:1;paint-order:normal"
         transform="rotate(-90)" />
    </g>
    <g
       id="decoration-inactive-topright"
       transform="translate(111.88413,2.5837369)">
      <path
         inkscape:connector-curvature="0"
         style="opacity:1;fill:url(#radialGradient1035);fill-opacity:1.0;fill-rule:evenodd;stroke:none;stroke-width:15;stroke-linecap:square;stroke-linejoin:round;stroke-miterlimit:4;stroke-dasharray:none;stroke-opacity:1;paint-order:normal"
         d="m 103.11587,923.93591 v -5 h -4.999999 v -10 h 14.999999 v 15 z"
         id="path1005" />
      <rect
         y="918.93597"
         x="98.115868"
         height="32"
         width="5"
         id="rect1007"
         style="opacity:1;fill:#11171c;fill-opacity:1;fill-rule:evenodd;stroke:none;stroke-width:15.78313065;stroke-linecap:square;stroke-linejoin:round;stroke-miterlimit:4;stroke-dasharray:none;stroke-opacity:1;paint-order:normal" />
      <rect
         style="opacity:1;fill:url(#linearGradient1037);fill-opacity:1.0;fill-rule:evenodd;stroke:none;stroke-width:15.58845901;stroke-linecap:square;stroke-linejoin:round;stroke-miterlimit:4;stroke-dasharray:none;stroke-opacity:1;paint-order:normal"
         id="rect1009"
         width="10"
         height="27"
         x="103.11587"
         y="923.93591" />
    </g>
    <g
       transform="matrix(-1,0,0,1,260.11587,2.5836759)"
       id="decoration-inactive-topleft">
      <path
         id="path1013"
         d="m 103.11587,923.93591 v -5 h -4.999999 v -10 h 14.999999 v 15 z"
         style="opacity:1;fill:url(#radialGradient1039);fill-opacity:1;fill-rule:evenodd;stroke:none;stroke-width:15;stroke-linecap:square;stroke-linejoin:round;stroke-miterlimit:4;stroke-dasharray:none;stroke-opacity:1;paint-order:normal"
         inkscape:connector-curvature="0" />
      <rect
         style="opacity:1;fill:#11171c;fill-opacity:1;fill-rule:evenodd;stroke:none;stroke-width:15.78312969;stroke-linecap:square;stroke-linejoin:round;stroke-miterlimit:4;stroke-dasharray:none;stroke-opacity:1;paint-order:normal"
         id="rect1016"
         width="5.0000024"
         height="32"
         x="98.115868"
         y="918.93597" />
      <rect
         y="923.93591"
         x="103.11587"
         height="27"
         width="10"
         id="rect1018"
         style="opacity:1;fill:url(#linearGradient1042);fill-opacity:1;fill-rule:evenodd;stroke:none;stroke-width:15.58845901;stroke-linecap:square;stroke-linejoin:round;stroke-miterlimit:4;stroke-dasharray:none;stroke-opacity:1;paint-order:normal" />
    </g>
  </g>
</svg>
