<?xml version="1.0" encoding="UTF-8" standalone="no"?>
<!-- Created with Inkscape (http://www.inkscape.org/) -->

<svg
   xmlns:dc="http://purl.org/dc/elements/1.1/"
   xmlns:cc="http://creativecommons.org/ns#"
   xmlns:rdf="http://www.w3.org/1999/02/22-rdf-syntax-ns#"
   xmlns:svg="http://www.w3.org/2000/svg"
   xmlns="http://www.w3.org/2000/svg"
   xmlns:sodipodi="http://sodipodi.sourceforge.net/DTD/sodipodi-0.dtd"
   xmlns:inkscape="http://www.inkscape.org/namespaces/inkscape"
   width="59.999996"
   height="60.000038"
   viewBox="0 0 15.874999 15.875011"
   version="1.1"
   id="svg2750"
   inkscape:version="0.92.4 5da689c313, 2019-01-14"
   sodipodi:docname="minimize.svg">
  <defs
     id="defs2744" />
  <sodipodi:namedview
     id="base"
     pagecolor="#ffffff"
     bordercolor="#666666"
     borderopacity="1.0"
     inkscape:pageopacity="0.0"
     inkscape:pageshadow="2"
     inkscape:zoom="12.079519"
     inkscape:cx="-1.5570526"
     inkscape:cy="23.358511"
     inkscape:document-units="px"
     inkscape:current-layer="layer1"
     showgrid="false"
     units="px"
     inkscape:pagecheckerboard="true"
     inkscape:showpageshadow="false"
     inkscape:window-width="1402"
     inkscape:window-height="821"
     inkscape:window-x="198"
     inkscape:window-y="137"
     inkscape:window-maximized="0"
     fit-margin-top="5"
     fit-margin-left="5"
     fit-margin-right="5"
     fit-margin-bottom="5" />
  <metadata
     id="metadata2747">
    <rdf:RDF>
      <cc:Work
         rdf:about="">
        <dc:format>image/svg+xml</dc:format>
        <dc:type
           rdf:resource="http://purl.org/dc/dcmitype/StillImage" />
        <dc:title />
      </cc:Work>
    </rdf:RDF>
  </metadata>
  <g
     inkscape:label="Layer 1"
     inkscape:groupmode="layer"
     id="layer1"
     transform="translate(6.695848,-285.27441)">
    <g
       id="active-center"
       transform="translate(-1.9932155,-4.030238)">
      <rect
         style="opacity:1;fill:none;fill-opacity:1;fill-rule:evenodd;stroke:none;stroke-width:1.0583334;stroke-linecap:square;stroke-linejoin:round;stroke-miterlimit:4;stroke-dasharray:none;stroke-opacity:0.40090093;paint-order:normal"
         id="rect1378"
         width="5.8208337"
         height="5.8208337"
         x="-3.1012669"
         y="290.34009" />
      <path
         inkscape:connector-curvature="0"
         id="path1407"
         d="M -1.2491834,293.2505 H 0.86748334"
         style="opacity:1;fill:none;stroke:#c9def2;stroke-width:0.5291667;stroke-linecap:butt;stroke-linejoin:miter;stroke-miterlimit:4;stroke-dasharray:none;stroke-opacity:1" />
    </g>
    <g
       transform="translate(3.8276182,-4.030238)"
       id="hover-center">
      <rect
         y="290.34009"
         x="-3.1012669"
         height="5.8208337"
         width="5.8208337"
         id="rect823"
         style="opacity:1;fill:none;fill-opacity:1;fill-rule:evenodd;stroke:none;stroke-width:1.0583334;stroke-linecap:square;stroke-linejoin:round;stroke-miterlimit:4;stroke-dasharray:none;stroke-opacity:0.40090093;paint-order:normal" />
      <path
         style="opacity:1;fill:none;stroke:#ffffff;stroke-width:0.5291667;stroke-linecap:butt;stroke-linejoin:miter;stroke-miterlimit:4;stroke-dasharray:none;stroke-opacity:1"
         d="M -1.2491834,293.2505 H 0.86748334"
         id="path825"
         inkscape:connector-curvature="0" />
    </g>
    <g
       transform="translate(-1.9932155,1.7905933)"
       id="pressed-center">
      <rect
         y="290.34009"
         x="-3.1012669"
         height="5.8208337"
         width="5.8208337"
         id="rect829"
         style="opacity:1;fill:none;fill-opacity:1;fill-rule:evenodd;stroke:none;stroke-width:1.0583334;stroke-linecap:square;stroke-linejoin:round;stroke-miterlimit:4;stroke-dasharray:none;stroke-opacity:0.40090093;paint-order:normal" />
      <path
         style="opacity:1;fill:none;stroke:#c9def2;stroke-width:0.5291667;stroke-linecap:butt;stroke-linejoin:miter;stroke-miterlimit:4;stroke-dasharray:none;stroke-opacity:1"
         d="M -1.0904336,293.40926 H 1.0262333"
         id="path831"
         inkscape:connector-curvature="0" />
    </g>
    <g
       transform="translate(3.8276182,1.7905933)"
       id="inactive-center">
      <rect
         y="290.34009"
         x="-3.1012669"
         height="5.8208337"
         width="5.8208337"
         id="rect835"
         style="opacity:1;fill:none;fill-opacity:1;fill-rule:evenodd;stroke:none;stroke-width:1.0583334;stroke-linecap:square;stroke-linejoin:round;stroke-miterlimit:4;stroke-dasharray:none;stroke-opacity:0.40090093;paint-order:normal" />
      <path
         style="opacity:1;fill:none;stroke:#a5b7c7;stroke-width:0.5291667;stroke-linecap:butt;stroke-linejoin:miter;stroke-miterlimit:4;stroke-dasharray:none;stroke-opacity:1"
         d="M -1.2491834,293.2505 H 0.86748334"
         id="path837"
         inkscape:connector-curvature="0" />
    </g>
  </g>
</svg>
