<?xml version="1.0" encoding="UTF-8" standalone="no"?>
<!-- Created with Inkscape (http://www.inkscape.org/) -->

<svg
   xmlns:dc="http://purl.org/dc/elements/1.1/"
   xmlns:cc="http://creativecommons.org/ns#"
   xmlns:rdf="http://www.w3.org/1999/02/22-rdf-syntax-ns#"
   xmlns:svg="http://www.w3.org/2000/svg"
   xmlns="http://www.w3.org/2000/svg"
   xmlns:sodipodi="http://sodipodi.sourceforge.net/DTD/sodipodi-0.dtd"
   xmlns:inkscape="http://www.inkscape.org/namespaces/inkscape"
   id="svg2"
   height="154.12111"
   viewBox="0 0 201.17917 154.12111"
   version="1.0"
   width="201.17917"
   inkscape:version="0.92.5 (2060ec1f9f, 2020-04-08)"
   sodipodi:docname="busywidget.svg">
  <defs
     id="defs36" />
  <style
     id="current-color-scheme"
     type="text/css">      .ColorScheme-Text {
        color:#31363b;
      }
      .ColorScheme-Background{
        color:#eff0f1;
      }
      .ColorScheme-ViewText {
        color:#31363b;
      }
      .ColorScheme-ViewBackground{
        color:#fcfcfc;
      }
      .ColorScheme-ViewHover {
        color:#3daee9;
      }
      .ColorScheme-ViewFocus{
        color:#3daee9;
      }
      .ColorScheme-ButtonText {
        color:#31363b;
      }
      .ColorScheme-ButtonBackground{
        color:#eff0f1;
      }
      .ColorScheme-ButtonHover {
        color:#3daee9;
      }
      .ColorScheme-ButtonFocus{
        color:#3daee9;
      }</style>
  <sodipodi:namedview
     pagecolor="#ffffff"
     bordercolor="#666666"
     borderopacity="1"
     objecttolerance="10"
     gridtolerance="10"
     guidetolerance="10"
     inkscape:pageopacity="0"
     inkscape:pageshadow="2"
     inkscape:window-width="1453"
     inkscape:window-height="883"
     id="namedview34"
     showgrid="false"
     inkscape:pagecheckerboard="true"
     inkscape:zoom="1.4142136"
     inkscape:cx="214.86622"
     inkscape:cy="121.67555"
     inkscape:current-layer="svg2"
     inkscape:window-x="194"
     inkscape:window-y="85"
     inkscape:window-maximized="0"
     inkscape:showpageshadow="false"
     fit-margin-top="10"
     fit-margin-left="10"
     fit-margin-right="10"
     fit-margin-bottom="10"
     showguides="true"
     inkscape:guide-bbox="true" />
  <metadata
     id="metadata7">
    <rdf:RDF>
      <cc:Work
         rdf:about="">
        <dc:format>image/svg+xml</dc:format>
        <dc:type
           rdf:resource="http://purl.org/dc/dcmitype/StillImage" />
        <dc:title />
      </cc:Work>
    </rdf:RDF>
  </metadata>
  <g
     id="g4422"
     transform="matrix(0.079592,0,0,0.079592,45.326164,53.891018)"
     style="fill:#000055;fill-opacity:0.13963964;stroke-width:82.18199921" />
  <rect
     style="fill:#41ad0b;fill-opacity:1;fill-rule:nonzero;stroke:none;stroke-width:1.07142818"
     id="hint-rotation-angle"
     width="15"
     height="15"
     x="22.020815"
     y="27.67767" />
  <g
     id="busywidget"
     transform="matrix(1.2968457,0,0,1.3023591,-326.55066,-240.86943)"
     style="stroke-width:0.76946783">
    <circle
       r="41.611031"
       cy="242.23744"
       cx="349.02289"
       id="path822"
       style="fill:none;fill-opacity:0.52644839;stroke:#41ad0b;stroke-width:15.38935757;stroke-miterlimit:4;stroke-dasharray:none;stroke-opacity:1" />
    <path
       sodipodi:open="true"
       d="m 390.60181,242.10161 a 41.936157,41.936157 0 0 1 -5.61838,20.96808"
       sodipodi:end="0.52359878"
       sodipodi:start="0"
       sodipodi:ry="41.936157"
       sodipodi:rx="41.936157"
       sodipodi:cy="242.10161"
       sodipodi:cx="348.66565"
       sodipodi:type="arc"
       style="fill:none;fill-opacity:0.52644839;stroke:#7cf941;stroke-width:15.38935757;stroke-miterlimit:4;stroke-dasharray:none;stroke-opacity:1"
       id="circle824" />
  </g>
</svg>
