<?xml version="1.0" encoding="UTF-8" standalone="no"?>
<!-- Created with Inkscape (http://www.inkscape.org/) -->

<svg
   xmlns:osb="http://www.openswatchbook.org/uri/2009/osb"
   xmlns:dc="http://purl.org/dc/elements/1.1/"
   xmlns:cc="http://creativecommons.org/ns#"
   xmlns:rdf="http://www.w3.org/1999/02/22-rdf-syntax-ns#"
   xmlns:svg="http://www.w3.org/2000/svg"
   xmlns="http://www.w3.org/2000/svg"
   xmlns:sodipodi="http://sodipodi.sourceforge.net/DTD/sodipodi-0.dtd"
   xmlns:inkscape="http://www.inkscape.org/namespaces/inkscape"
   id="svg2"
   width="133.36784"
   viewBox="0 0 133.36792 140.85523"
   version="1.1"
   height="140.85532"
   inkscape:version="0.92.5 (2060ec1f9f, 2020-04-08)"
   sodipodi:docname="button.svg">
  <sodipodi:namedview
     pagecolor="#000000"
     bordercolor="#666666"
     borderopacity="1"
     objecttolerance="10"
     gridtolerance="10"
     guidetolerance="10"
     inkscape:pageopacity="0.27843137"
     inkscape:pageshadow="2"
     inkscape:window-width="1405"
     inkscape:window-height="843"
     id="namedview4532"
     showgrid="false"
     inkscape:zoom="3.221785"
     inkscape:cx="-35.021557"
     inkscape:cy="34.867166"
     inkscape:current-layer="svg2"
     inkscape:measure-start="0,0"
     inkscape:measure-end="0,0"
     inkscape:pagecheckerboard="true"
     inkscape:window-x="18"
     inkscape:window-y="236"
     inkscape:window-maximized="0"
     inkscape:showpageshadow="false"
     fit-margin-top="5"
     fit-margin-left="5"
     fit-margin-right="5"
     fit-margin-bottom="5"
     inkscape:snap-bbox="true"
     inkscape:bbox-nodes="true"
     inkscape:snap-global="true"
     inkscape:snap-nodes="false"
     inkscape:bbox-paths="true">
    <inkscape:grid
       id="grid1545"
       type="xygrid" />
  </sodipodi:namedview>
  <defs
     id="defs4">
    <linearGradient
       id="hoverborder"
       osb:paint="solid">
      <stop
         style="stop-color:#328e06;stop-opacity:1;"
         offset="0"
         id="stop1576" />
    </linearGradient>
    <style
       id="current-color-scheme"
       type="text/css">
      .ColorScheme-Text {
        color:#31363b;
        stop-color:#31363b;
      }
      .ColorScheme-Background {
        color:#ffffff;
        stop-color:#ffffff;
      }
      .ColorScheme-Highlight {
        
        stop-
      }
      .ColorScheme-ViewText {
        color:#31363b;
        stop-color:#31363b;
      }
      .ColorScheme-ViewBackground {
        color:#fcfcfc;
        stop-color:#fcfcfc;
      }
      .ColorScheme-ViewBackground {
        color:#93cee9;
        stop-color:#93cee9;
      }
      .ColorScheme-ViewBackground{
        
        stop-
      }
      .ColorScheme-ButtonText {
        color:#31363b;
        stop-color:#31363b;
      }
      .ColorScheme-ButtonBackground {
        color:#eff0f1;
        stop-color:#eff0f1;
      }
      .ColorScheme-ButtonHover {
        color:#93cee9;
        stop-color:#93cee9;
      }
      .ColorScheme-ButtonFocus{
        
        stop-
      }
      </style>
    <linearGradient
       osb:paint="solid"
       id="Pressed-7">
      <stop
         style="stop-color:#3b4551;stop-opacity:1;"
         stop-opacity=".89412"
         offset="0"
         id="stop7502" />
    </linearGradient>
  </defs>
  <metadata
     id="metadata7">
    <rdf:RDF>
      <cc:Work
         rdf:about="">
        <dc:format>image/svg+xml</dc:format>
        <dc:type
           rdf:resource="http://purl.org/dc/dcmitype/StillImage" />
        <dc:title />
      </cc:Work>
    </rdf:RDF>
  </metadata>
  <rect
     id="normal-center"
     y="-36.855255"
     x="-37.000023"
     width="24.000013"
     height="24.000013"
     class="ColorScheme-ButtonBackground"
     style="opacity:1;fill:#253848;fill-opacity:1;fill-rule:evenodd;stroke-width:2.00000119"
     transform="scale(-1)" />
  <rect
     id="hover-center"
     y="-35.647579"
     x="-122.36792"
     width="24.000013"
     height="24.000013"
     class="ColorScheme-ViewHover"
     style="fill:none;fill-opacity:1;fill-rule:evenodd;stroke-width:2.00000119"
     transform="scale(-1)"
     ry="0"
     rx="0" />
  <g
     id="hover-top"
     transform="translate(-3.7335845,4.1858882)">
    <rect
       id="rect4601"
       y="102.10239"
       x="-2.4624667"
       width="1.0000006"
       height="24.000013"
       class="ColorScheme-ViewHover"
       style="fill:#5d6873;fill-opacity:1;fill-rule:evenodd;stroke-width:0.40824854"
       transform="rotate(-90)" />
    <rect
       transform="rotate(-90)"
       style="fill:none;fill-opacity:1;fill-rule:evenodd;stroke-width:0.91287154"
       class="ColorScheme-Text"
       height="24.000013"
       width="5.0000029"
       x="-7.4624696"
       y="102.10239"
       id="rect949" />
  </g>
  <rect
     style="fill:#4e9a06;fill-opacity:1;fill-rule:nonzero;stroke:none"
     id="normal-hint-bottom-margin"
     width="2.0000012"
     height="6.0000033"
     x="72.61525"
     y="55.00238" />
  <rect
     y="47.00238"
     x="72.61525"
     height="6.0000033"
     width="2.0000012"
     id="normal-hint-top-margin"
     style="fill:#4e9a06;fill-opacity:1;fill-rule:nonzero;stroke:none" />
  <rect
     transform="rotate(-90)"
     style="fill:#4e9a06;fill-opacity:1;fill-rule:nonzero;stroke:none"
     id="normal-hint-left-margin"
     width="2.0000012"
     height="6.0000033"
     x="-55.00238"
     y="66.615242" />
  <rect
     y="74.61525"
     x="-55.00238"
     height="6.0000033"
     width="2.0000012"
     id="normal-hint-right-margin"
     style="fill:#4e9a06;fill-opacity:1;fill-rule:nonzero;stroke:none"
     transform="rotate(-90)" />
  <rect
     y="57.720901"
     x="101.83378"
     height="6.0000033"
     width="2.0000012"
     id="toolbutton-hover-hint-bottom-margin"
     style="fill:#4e9a06;fill-opacity:1;fill-rule:nonzero;stroke:none" />
  <rect
     style="fill:#4e9a06;fill-opacity:1;fill-rule:nonzero;stroke:none"
     id="toolbutton-hover-hint-top-margin"
     width="2.0000012"
     height="6.0000033"
     x="101.83378"
     y="49.720901" />
  <rect
     y="95.833771"
     x="-57.720901"
     height="6.0000033"
     width="2.0000012"
     id="toolbutton-hover-hint-left-margin"
     style="fill:#4e9a06;fill-opacity:1;fill-rule:nonzero;stroke:none"
     transform="rotate(-90)" />
  <rect
     transform="rotate(-90)"
     style="fill:#4e9a06;fill-opacity:1;fill-rule:nonzero;stroke:none"
     id="toolbutton-hover-hint-right-margin"
     width="2.0000012"
     height="6.0000033"
     x="-57.720901"
     y="103.83378" />
  <rect
     style="fill:#4e9a06;fill-opacity:1;fill-rule:nonzero;stroke:none"
     id="pressed-hint-top-margin"
     width="2.0000012"
     height="6.0000033"
     x="73.25528"
     y="70.889519" />
  <rect
     transform="rotate(-90)"
     style="fill:#4e9a06;fill-opacity:1;fill-rule:nonzero;stroke:none"
     id="pressed-hint-right-margin"
     width="2.0000012"
     height="6.0000033"
     x="-78.889519"
     y="75.255272" />
  <rect
     y="67.255272"
     x="-78.889519"
     height="6.0000033"
     width="2.0000012"
     id="pressed-hint-left-margin"
     style="fill:#4e9a06;fill-opacity:1;fill-rule:nonzero;stroke:none"
     transform="rotate(-90)" />
  <rect
     y="78.889519"
     x="73.25528"
     height="6.0000033"
     width="2.0000012"
     id="pressed-hint-bottom-margin"
     style="fill:#4e9a06;fill-opacity:1;fill-rule:nonzero;stroke:none" />
  <rect
     y="70.889519"
     x="102.55421"
     height="6.0000033"
     width="2.0000012"
     id="toolbutton-pressed-hint-top-margin"
     style="fill:#4e9a06;fill-opacity:1;fill-rule:nonzero;stroke:none" />
  <rect
     y="104.55421"
     x="-78.889519"
     height="6.0000033"
     width="2.0000012"
     id="toolbutton-pressed-hint-right-margin"
     style="fill:#4e9a06;fill-opacity:1;fill-rule:nonzero;stroke:none"
     transform="rotate(-90)" />
  <rect
     transform="rotate(-90)"
     style="fill:#4e9a06;fill-opacity:1;fill-rule:nonzero;stroke:none"
     id="toolbutton-pressed-hint-left-margin"
     width="2.0000012"
     height="6.0000033"
     x="-78.889519"
     y="96.554207" />
  <rect
     style="fill:#4e9a06;fill-opacity:1;fill-rule:nonzero;stroke:none"
     id="toolbutton-pressed-hint-bottom-margin"
     width="2.0000012"
     height="6.0000033"
     x="102.55421"
     y="78.889519" />
  <rect
     transform="scale(-1)"
     style="fill:#192530;fill-opacity:1;fill-rule:evenodd;stroke-width:2.00000119"
     class="ColorScheme-ButtonBackground"
     height="24.000013"
     width="24.000013"
     x="-35.000019"
     y="-129.85535"
     id="toolbutton-pressed-center" />
  <rect
     id="toolbutton-pressed-left"
     y="-129.85535"
     x="-11.000003"
     width="6"
     height="24.000013"
     class="ColorScheme-ButtonBackground"
     style="fill:#192530;fill-opacity:1;fill-rule:evenodd;stroke-width:0.57735062"
     transform="scale(-1)" />
  <rect
     transform="scale(-1)"
     style="fill:#192530;fill-opacity:1;fill-rule:evenodd;stroke-width:0.57735062"
     class="ColorScheme-ButtonBackground"
     height="24.000013"
     width="6"
     x="-41.000027"
     y="-129.85533"
     id="toolbutton-pressed-right" />
  <rect
     id="toolbutton-pressed-top"
     y="11.00001"
     x="-105.85532"
     width="6"
     height="24.000013"
     class="ColorScheme-ButtonBackground"
     style="fill:#192530;fill-opacity:1;fill-rule:evenodd;stroke-width:0.57735062"
     transform="rotate(-90)" />
  <rect
     transform="rotate(-90)"
     style="fill:#192530;fill-opacity:1;fill-rule:evenodd;stroke-width:0.57735062"
     height="24.000013"
     width="6"
     x="-135.85535"
     y="11.000003"
     class="ColorScheme-ButtonBackground"
     id="toolbutton-pressed-bottom" />
  <rect
     transform="scale(-1)"
     style="fill:#192530;fill-opacity:1;fill-rule:evenodd;stroke-width:0.16666678"
     class="ColorScheme-ButtonBackground"
     height="6"
     width="6"
     x="-11.000003"
     y="-135.85535"
     id="toolbutton-pressed-bottomleft" />
  <rect
     id="toolbutton-pressed-topleft"
     y="-105.85532"
     x="-11.00001"
     width="6"
     height="6"
     class="ColorScheme-ButtonBackground"
     style="fill:#192530;fill-opacity:1;fill-rule:evenodd;stroke-width:0.16666678"
     transform="scale(-1)" />
  <rect
     id="toolbutton-pressed-bottomright"
     y="-135.85535"
     x="-41.000019"
     width="6"
     height="6"
     class="ColorScheme-ButtonBackground"
     style="fill:#192530;fill-opacity:1;fill-rule:evenodd;stroke-width:0.16666678"
     transform="scale(-1)" />
  <rect
     transform="scale(-1)"
     style="fill:#192530;fill-opacity:1;fill-rule:evenodd;stroke-width:0.16666678"
     class="ColorScheme-ButtonBackground"
     height="6"
     width="6"
     x="-41.000027"
     y="-105.85532"
     id="toolbutton-pressed-topright" />
  <rect
     y="72.276711"
     x="88.915596"
     height="0.010000006"
     width="2.0000012"
     id="hover-hint-bottom-margin"
     style="fill:#4e9a06;fill-opacity:1;fill-rule:nonzero;stroke:none;stroke-width:0.04082483" />
  <rect
     style="fill:#4e9a06;fill-opacity:1;fill-rule:nonzero;stroke:none;stroke-width:0.04082483"
     id="hover-hint-top-margin"
     width="2.0000012"
     height="0.010000006"
     x="88.696129"
     y="60.765079" />
  <rect
     y="84.561668"
     x="-66.615921"
     height="0.010000006"
     width="2.0000012"
     id="hover-hint-left-margin"
     style="fill:#4e9a06;fill-opacity:1;fill-rule:nonzero;stroke:none;stroke-width:0.04082483"
     transform="rotate(-90)" />
  <rect
     transform="rotate(-90)"
     style="fill:#4e9a06;fill-opacity:1;fill-rule:nonzero;stroke:none;stroke-width:0.04082483"
     id="hover-hint-right-margin"
     width="2.0000012"
     height="0.010000006"
     x="-66.615921"
     y="92.561691" />
  <g
     id="normal-top"
     transform="translate(2.9647715,14.145961)"
     style="fill:#192530;fill-opacity:1">
    <rect
       id="rect959"
       y="10.035236"
       x="1.2907207"
       width="5.0000029"
       height="24.000013"
       class="ColorScheme-ButtonBackground"
       style="fill:#253848;fill-opacity:1;fill-rule:evenodd;stroke-width:0.52704674"
       transform="rotate(-90)" />
    <rect
       transform="rotate(-90)"
       style="fill:none;fill-opacity:1;fill-rule:evenodd;stroke-width:0.23570247"
       class="ColorScheme-ButtonBackground"
       height="24.000013"
       width="1.0000006"
       x="6.2907238"
       y="10.035236"
       id="rect953" />
  </g>
  <g
     transform="matrix(1,0,0,-1,-3.7335873,43.110842)"
     id="hover-bottom">
    <rect
       transform="rotate(-90)"
       style="fill:#5d6873;fill-opacity:1;fill-rule:evenodd;stroke-width:0.40824854"
       class="ColorScheme-ViewHover"
       height="24.000013"
       width="1.0000006"
       x="-2.4624667"
       y="102.10239"
       id="rect3076" />
    <rect
       id="rect3078"
       y="102.10239"
       x="-7.4624696"
       width="5.0000029"
       height="24.000013"
       class="ColorScheme-Text"
       style="fill:none;fill-opacity:1;fill-rule:evenodd;stroke-width:0.91287154"
       transform="rotate(-90)" />
  </g>
  <g
     transform="rotate(90,110.14261,19.687784)"
     id="hover-right">
    <rect
       transform="rotate(-90)"
       style="fill:#5d6873;fill-opacity:1;fill-rule:evenodd;stroke-width:0.40824854"
       class="ColorScheme-ViewHover"
       height="24.000013"
       width="1.0000006"
       x="-2.4624667"
       y="102.10239"
       id="rect3082" />
    <rect
       id="rect3084"
       y="102.10239"
       x="-7.4624696"
       width="5.0000029"
       height="24.000013"
       class="ColorScheme-Text"
       style="fill:none;fill-opacity:1;fill-rule:evenodd;stroke-width:0.91287154"
       transform="rotate(-90)" />
  </g>
  <g
     id="hover-left"
     transform="matrix(0,1,1,0,90.906333,-90.454029)">
    <rect
       id="rect3088"
       y="102.10239"
       x="-2.4624667"
       width="1.0000006"
       height="24.000013"
       class="ColorScheme-ViewHover"
       style="fill:#5d6873;fill-opacity:1;fill-rule:evenodd;stroke-width:0.40824854"
       transform="rotate(-90)" />
    <rect
       transform="rotate(-90)"
       style="fill:none;fill-opacity:1;fill-rule:evenodd;stroke-width:0.91287154"
       class="ColorScheme-Text"
       height="24.000013"
       width="5.0000029"
       x="-7.4624696"
       y="102.10239"
       id="rect3090" />
  </g>
  <g
     id="normal-topright"
     transform="translate(0.54159419,12.951597)"
     style="fill:#192530;fill-opacity:1">
    <rect
       id="rect3096"
       y="0.096356533"
       x="-41.458439"
       width="5.0000029"
       height="5.0000029"
       class="ColorScheme-ButtonBackground"
       style="fill:#253848;fill-opacity:1;fill-rule:evenodd;stroke-width:0.16666673"
       transform="scale(-1)" />
    <path
       inkscape:connector-curvature="0"
       id="rect985"
       d="m 36.458427,-6.0963565 v 1 h 5 v 4.99999997 h 1 V -6.0963565 Z"
       style="fill:none;fill-opacity:1;fill-rule:evenodd;stroke-width:0.16666673" />
  </g>
  <g
     transform="matrix(1,0,0,-1,2.9647715,35.564533)"
     id="normal-bottom"
     style="fill:#192530;fill-opacity:1">
    <rect
       transform="rotate(-90)"
       style="fill:#253848;fill-opacity:1;fill-rule:evenodd;stroke-width:0.52704674"
       class="ColorScheme-ButtonBackground"
       height="24.000013"
       width="5.0000029"
       x="1.2907207"
       y="10.035236"
       id="rect972" />
    <rect
       id="rect974"
       y="10.035236"
       x="6.2907238"
       width="1.0000006"
       height="24.000013"
       class="ColorScheme-ButtonBackground"
       style="fill:none;fill-opacity:1;fill-rule:evenodd;stroke-width:0.23570247"
       transform="rotate(-90)" />
  </g>
  <g
     transform="rotate(90,16.444648,19.264652)"
     id="normal-right"
     style="fill:#192530;fill-opacity:1">
    <rect
       transform="rotate(-90)"
       style="fill:#253848;fill-opacity:1;fill-rule:evenodd;stroke-width:0.52704674"
       class="ColorScheme-ButtonBackground"
       height="24.000013"
       width="5.0000029"
       x="1.2907207"
       y="10.035236"
       id="rect978" />
    <rect
       id="rect980"
       y="10.035236"
       x="6.2907238"
       width="1.0000006"
       height="24.000013"
       class="ColorScheme-ButtonBackground"
       style="fill:none;fill-opacity:1;fill-rule:evenodd;stroke-width:0.23570247"
       transform="rotate(-90)" />
  </g>
  <g
     id="normal-left"
     transform="matrix(0,1,1,0,14.290728,2.8200041)"
     style="fill:#192530;fill-opacity:1">
    <rect
       id="rect984"
       y="10.035236"
       x="1.2907207"
       width="5.0000029"
       height="24.000013"
       class="ColorScheme-ButtonBackground"
       style="fill:#253848;fill-opacity:1;fill-rule:evenodd;stroke-width:0.52704674"
       transform="rotate(-90)" />
    <rect
       transform="rotate(-90)"
       style="fill:none;fill-opacity:1;fill-rule:evenodd;stroke-width:0.23570247"
       class="ColorScheme-ButtonBackground"
       height="24.000013"
       width="1.0000006"
       x="6.2907238"
       y="10.035236"
       id="rect986" />
  </g>
  <g
     transform="matrix(-1,0,0,1,49.458434,12.951597)"
     id="normal-topleft"
     style="fill:#192530;fill-opacity:1">
    <rect
       transform="scale(-1)"
       style="fill:#253848;fill-opacity:1;fill-rule:evenodd;stroke-width:0.16666673"
       class="ColorScheme-ButtonBackground"
       height="5.0000029"
       width="4.9999914"
       x="-41.458427"
       y="0.096356533"
       id="rect990" />
    <path
       style="fill:none;fill-opacity:1;fill-rule:evenodd;stroke-width:0.16666673"
       d="m 36.458427,-6.0963565 v 1 h 5 v 4.99999997 h 1 V -6.0963565 Z"
       id="path992"
       inkscape:connector-curvature="0" />
  </g>
  <g
     transform="matrix(1,0,0,-1,0.54159719,36.758897)"
     id="normal-bottomright"
     style="fill:#192530;fill-opacity:1">
    <rect
       transform="scale(-1)"
       style="fill:#253848;fill-opacity:1;fill-rule:evenodd;stroke-width:0.16666673"
       class="ColorScheme-ButtonBackground"
       height="5.0000033"
       width="4.9999919"
       x="-41.458427"
       y="0.096356526"
       id="rect996" />
    <path
       style="fill:none;fill-opacity:1;fill-rule:evenodd;stroke-width:0.16666673"
       d="m 36.458427,-6.0963565 v 1 h 5 v 4.99999997 h 1 V -6.0963565 Z"
       id="path998"
       inkscape:connector-curvature="0" />
  </g>
  <g
     transform="rotate(-180,24.729217,18.379449)"
     id="normal-bottomleft"
     style="fill:#192530;fill-opacity:1">
    <rect
       transform="scale(-1)"
       style="fill:#253848;fill-opacity:1;fill-rule:evenodd;stroke-width:0.16666673"
       class="ColorScheme-ButtonBackground"
       height="5.0000024"
       width="4.9999957"
       x="-41.458431"
       y="0.096356526"
       id="rect1002" />
    <path
       style="fill:none;fill-opacity:1;fill-rule:evenodd;stroke-width:0.16666673"
       d="m 36.458427,-6.0963565 v 1 h 5 v 4.99999997 h 1 V -6.0963565 Z"
       id="path1004"
       inkscape:connector-curvature="0" />
  </g>
  <g
     transform="translate(85.909497,11.74392)"
     id="hover-topright">
    <rect
       transform="scale(-1)"
       style="fill:none;fill-opacity:1;fill-rule:evenodd;stroke-width:0.16666673"
       class="ColorScheme-ButtonBackground"
       height="6.0000038"
       width="5.9999924"
       x="-42.458427"
       y="0.096356526"
       id="rect1008" />
    <path
       style="fill:#5d6873;fill-opacity:1;fill-rule:evenodd;stroke-width:0.16666673"
       d="m 36.458427,-6.0963565 v 1 h 5 v 4.99999997 h 1 V -6.0963565 Z"
       id="path1010"
       inkscape:connector-curvature="0" />
  </g>
  <g
     id="hover-topleft"
     transform="matrix(-1,0,0,1,134.82722,11.744714)">
    <rect
       id="rect1014"
       y="0.096356526"
       x="-42.458427"
       width="5.9999924"
       height="6.0000038"
       class="ColorScheme-ButtonBackground"
       style="fill:none;fill-opacity:1;fill-rule:evenodd;stroke-width:0.16666673"
       transform="scale(-1)" />
    <path
       inkscape:connector-curvature="0"
       id="path1016"
       d="m 36.458427,-6.0963565 v 1 h 5 v 4.99999997 h 1 V -6.0963565 Z"
       style="fill:#5d6873;fill-opacity:1;fill-rule:evenodd;stroke-width:0.16666673" />
  </g>
  <g
     id="hover-bottomright"
     transform="matrix(1,0,0,-1,85.909497,35.55122)">
    <rect
       id="rect1020"
       y="0.096356526"
       x="-42.458427"
       width="5.9999924"
       height="6.0000038"
       class="ColorScheme-ButtonBackground"
       style="fill:none;fill-opacity:1;fill-rule:evenodd;stroke-width:0.16666673"
       transform="scale(-1)" />
    <path
       inkscape:connector-curvature="0"
       id="path1022"
       d="m 36.458427,-6.0963565 v 1 h 5 v 4.99999997 h 1 V -6.0963565 Z"
       style="fill:#5d6873;fill-opacity:1;fill-rule:evenodd;stroke-width:0.16666673" />
  </g>
  <g
     id="hover-bottomleft"
     transform="rotate(-180,67.413613,17.776007)">
    <rect
       id="rect1026"
       y="0.096356526"
       x="-42.458427"
       width="5.9999924"
       height="6.0000038"
       class="ColorScheme-ButtonBackground"
       style="fill:none;fill-opacity:1;fill-rule:evenodd;stroke-width:0.16666673"
       transform="scale(-1)" />
    <path
       inkscape:connector-curvature="0"
       id="path1028"
       d="m 36.458427,-6.0963565 v 1 h 5 v 4.99999997 h 1 V -6.0963565 Z"
       style="fill:#5d6873;fill-opacity:1;fill-rule:evenodd;stroke-width:0.16666673" />
  </g>
  <rect
     id="toolbutton-hover-center"
     y="-79.855278"
     x="-37.000023"
     width="24.000013"
     height="24.000013"
     class="ColorScheme-ButtonBackground"
     style="opacity:1;fill:#253848;fill-opacity:1;fill-rule:evenodd;stroke-width:2.00000119"
     transform="scale(-1)" />
  <g
     id="toolbutton-hover-top"
     transform="translate(2.9647715,57.145986)">
    <rect
       id="rect957"
       y="10.035236"
       x="1.2907207"
       width="5.0000029"
       height="24.000013"
       class="ColorScheme-ButtonBackground"
       style="fill:#253848;fill-opacity:1;fill-rule:evenodd;stroke-width:0.52704674"
       transform="rotate(-90)" />
    <rect
       transform="rotate(-90)"
       style="fill:#5d6873;fill-opacity:1;fill-rule:evenodd;stroke-width:0.23570247"
       class="ColorScheme-ButtonBackground"
       height="24.000013"
       width="1.0000006"
       x="6.2907238"
       y="10.035236"
       id="rect960" />
  </g>
  <g
     id="toolbutton-hover-topright"
     transform="translate(0.54159419,55.951618)">
    <rect
       id="rect964"
       y="0.096356533"
       x="-41.458439"
       width="5.0000029"
       height="5.0000029"
       class="ColorScheme-ButtonBackground"
       style="fill:#253848;fill-opacity:1;fill-rule:evenodd;stroke-width:0.16666673"
       transform="scale(-1)" />
    <path
       inkscape:connector-curvature="0"
       id="path966"
       d="m 36.458427,-6.0963565 v 1 h 5 v 4.99999997 h 1 V -6.0963565 Z"
       style="fill:#5d6873;fill-opacity:1;fill-rule:evenodd;stroke-width:0.16666673" />
  </g>
  <g
     transform="matrix(1,0,0,-1,2.9647715,78.564558)"
     id="toolbutton-hover-bottom">
    <rect
       transform="rotate(-90)"
       style="fill:#253848;fill-opacity:1;fill-rule:evenodd;stroke-width:0.52704674"
       class="ColorScheme-ButtonBackground"
       height="24.000013"
       width="5.0000029"
       x="1.2907207"
       y="10.035236"
       id="rect970" />
    <rect
       id="rect973"
       y="10.035236"
       x="6.2907238"
       width="1.0000006"
       height="24.000013"
       class="ColorScheme-ButtonBackground"
       style="fill:#5d6873;fill-opacity:1;fill-rule:evenodd;stroke-width:0.23570247"
       transform="rotate(-90)" />
  </g>
  <g
     transform="rotate(90,-5.0553639,40.764664)"
     id="toolbutton-hover-right">
    <rect
       transform="rotate(-90)"
       style="fill:#253848;fill-opacity:1;fill-rule:evenodd;stroke-width:0.52704674"
       class="ColorScheme-ButtonBackground"
       height="24.000013"
       width="5.0000029"
       x="1.2907207"
       y="10.035236"
       id="rect977" />
    <rect
       id="rect979"
       y="10.035236"
       x="6.2907238"
       width="1.0000006"
       height="24.000013"
       class="ColorScheme-ButtonBackground"
       style="fill:#5d6873;fill-opacity:1;fill-rule:evenodd;stroke-width:0.23570247"
       transform="rotate(-90)" />
  </g>
  <g
     id="toolbutton-hover-left"
     transform="matrix(0,1,1,0,14.290728,45.820029)">
    <rect
       id="rect983"
       y="10.035236"
       x="1.2907207"
       width="5.0000029"
       height="24.000013"
       class="ColorScheme-ButtonBackground"
       style="fill:#253848;fill-opacity:1;fill-rule:evenodd;stroke-width:0.52704674"
       transform="rotate(-90)" />
    <rect
       transform="rotate(-90)"
       style="fill:#5d6873;fill-opacity:1;fill-rule:evenodd;stroke-width:0.23570247"
       class="ColorScheme-ButtonBackground"
       height="24.000013"
       width="1.0000006"
       x="6.2907238"
       y="10.035236"
       id="rect987" />
  </g>
  <g
     transform="matrix(-1,0,0,1,49.458434,55.951622)"
     id="toolbutton-hover-topleft">
    <rect
       transform="scale(-1)"
       style="fill:#253848;fill-opacity:1;fill-rule:evenodd;stroke-width:0.16666673"
       class="ColorScheme-ButtonBackground"
       height="5.0000038"
       width="4.9999943"
       x="-41.458427"
       y="0.096356519"
       id="rect991" />
    <path
       style="fill:#5d6873;fill-opacity:1;fill-rule:evenodd;stroke-width:0.16666673"
       d="m 36.458427,-6.0963565 v 1 h 5 v 4.99999997 h 1 V -6.0963565 Z"
       id="path993"
       inkscape:connector-curvature="0" />
  </g>
  <g
     transform="matrix(1,0,0,-1,0.54159719,79.758922)"
     id="toolbutton-hover-bottomright">
    <rect
       transform="scale(-1)"
       style="fill:#253848;fill-opacity:1;fill-rule:evenodd;stroke-width:0.16666673"
       class="ColorScheme-ButtonBackground"
       height="5.0000029"
       width="4.9999919"
       x="-41.458427"
       y="0.096356526"
       id="rect997" />
    <path
       style="fill:#5d6873;fill-opacity:1;fill-rule:evenodd;stroke-width:0.16666673"
       d="m 36.458427,-6.0963565 v 1 h 5 v 4.99999997 h 1 V -6.0963565 Z"
       id="path999"
       inkscape:connector-curvature="0" />
  </g>
  <g
     transform="rotate(-180,24.729216,39.879461)"
     id="toolbutton-hover-bottomleft">
    <rect
       transform="scale(-1)"
       style="fill:#253848;fill-opacity:1;fill-rule:evenodd;stroke-width:0.16666673"
       class="ColorScheme-ButtonBackground"
       height="5.0000029"
       width="4.9999924"
       x="-41.458427"
       y="0.096356526"
       id="rect1003" />
    <path
       style="fill:#5d6873;fill-opacity:1;fill-rule:evenodd;stroke-width:0.16666673"
       d="m 36.458427,-6.0963565 v 1 h 5 v 4.99999997 h 1 V -6.0963565 Z"
       id="path1005"
       inkscape:connector-curvature="0" />
  </g>
  <path
     inkscape:connector-curvature="0"
     style="fill:#008080;fill-rule:evenodd;stroke-width:1"
     id="focus-background-hint-compose-over-border"
     d="m 116.03285,98.665699 h 1 v 1 h -1 z" />
  <path
     inkscape:connector-curvature="0"
     d="m 112.03285,98.665699 h 1 v 1 h -1 z"
     id="hint-focus-highlighted-background"
     style="fill:#008080;fill-rule:evenodd;stroke-width:1" />
  <rect
     id="pressed-center"
     y="-36.855255"
     x="-81.000023"
     width="24.000013"
     height="24.000013"
     class="ColorScheme-ButtonBackground"
     style="opacity:1;fill:#192530;fill-opacity:1;fill-rule:evenodd;stroke-width:2.00000119"
     transform="scale(-1)" />
  <g
     id="pressed-top"
     transform="translate(46.964794,14.145961)"
     style="fill:#192530;fill-opacity:1">
    <rect
       id="rect1549"
       y="10.035236"
       x="1.2907207"
       width="5.0000029"
       height="24.000013"
       class="ColorScheme-ButtonBackground"
       style="fill:#192530;fill-opacity:1;fill-rule:evenodd;stroke-width:0.52704674"
       transform="rotate(-90)" />
    <rect
       transform="rotate(-90)"
       style="fill:none;fill-opacity:1;fill-rule:evenodd;stroke-width:0.23570247"
       class="ColorScheme-ButtonBackground"
       height="24.000013"
       width="1.0000006"
       x="6.2907238"
       y="10.035236"
       id="rect1551" />
  </g>
  <g
     id="pressed-topright"
     transform="translate(44.541617,12.951597)"
     style="fill:#192530;fill-opacity:1">
    <rect
       id="rect1555"
       y="0.096356533"
       x="-41.458439"
       width="5.0000029"
       height="5.0000029"
       class="ColorScheme-ButtonBackground"
       style="fill:#192530;fill-opacity:1;fill-rule:evenodd;stroke-width:0.16666673"
       transform="scale(-1)" />
    <path
       inkscape:connector-curvature="0"
       id="path1557"
       d="m 36.458427,-6.0963565 v 1 h 5 v 4.99999997 h 1 V -6.0963565 Z"
       style="fill:none;fill-opacity:1;fill-rule:evenodd;stroke-width:0.16666673" />
  </g>
  <g
     transform="matrix(1,0,0,-1,46.964794,35.564533)"
     id="pressed-bottom"
     style="fill:#192530;fill-opacity:1">
    <rect
       transform="rotate(-90)"
       style="fill:#192530;fill-opacity:1;fill-rule:evenodd;stroke-width:0.52704674"
       class="ColorScheme-ButtonBackground"
       height="24.000013"
       width="5.0000029"
       x="1.2907207"
       y="10.035236"
       id="rect1561" />
    <rect
       id="rect1563"
       y="10.035236"
       x="6.2907238"
       width="1.0000006"
       height="24.000013"
       class="ColorScheme-ButtonBackground"
       style="fill:none;fill-opacity:1;fill-rule:evenodd;stroke-width:0.23570247"
       transform="rotate(-90)" />
  </g>
  <g
     transform="rotate(90,38.44467,41.264674)"
     id="pressed-right"
     style="fill:#192530;fill-opacity:1">
    <rect
       transform="rotate(-90)"
       style="fill:#192530;fill-opacity:1;fill-rule:evenodd;stroke-width:0.52704674"
       class="ColorScheme-ButtonBackground"
       height="24.000013"
       width="5.0000029"
       x="1.2907207"
       y="10.035236"
       id="rect1567" />
    <rect
       id="rect1569"
       y="10.035236"
       x="6.2907238"
       width="1.0000006"
       height="24.000013"
       class="ColorScheme-ButtonBackground"
       style="fill:none;fill-opacity:1;fill-rule:evenodd;stroke-width:0.23570247"
       transform="rotate(-90)" />
  </g>
  <g
     id="pressed-left"
     transform="matrix(0,1,1,0,58.29075,2.8200041)"
     style="fill:#192530;fill-opacity:1">
    <rect
       id="rect1573"
       y="10.035236"
       x="1.2907207"
       width="5.0000029"
       height="24.000013"
       class="ColorScheme-ButtonBackground"
       style="fill:#192530;fill-opacity:1;fill-rule:evenodd;stroke-width:0.52704674"
       transform="rotate(-90)" />
    <rect
       transform="rotate(-90)"
       style="fill:none;fill-opacity:1;fill-rule:evenodd;stroke-width:0.23570247"
       class="ColorScheme-ButtonBackground"
       height="24.000013"
       width="1.0000006"
       x="6.2907238"
       y="10.035236"
       id="rect1575" />
  </g>
  <g
     transform="matrix(-1,0,0,1,93.458456,12.951597)"
     id="pressed-topleft"
     style="fill:#192530;fill-opacity:1">
    <rect
       transform="scale(-1)"
       style="fill:#192530;fill-opacity:1;fill-rule:evenodd;stroke-width:0.16666673"
       class="ColorScheme-ButtonBackground"
       height="5.0000029"
       width="4.9999914"
       x="-41.458427"
       y="0.096356533"
       id="rect1579" />
    <path
       style="fill:none;fill-opacity:1;fill-rule:evenodd;stroke-width:0.16666673"
       d="m 36.458427,-6.0963565 v 1 h 5 v 4.99999997 h 1 V -6.0963565 Z"
       id="path1581"
       inkscape:connector-curvature="0" />
  </g>
  <g
     transform="matrix(1,0,0,-1,44.54162,36.758897)"
     id="pressed-bottomright"
     style="fill:#192530;fill-opacity:1">
    <rect
       transform="scale(-1)"
       style="fill:#192530;fill-opacity:1;fill-rule:evenodd;stroke-width:0.16666673"
       class="ColorScheme-ButtonBackground"
       height="5.0000033"
       width="4.9999919"
       x="-41.458427"
       y="0.096356526"
       id="rect1585" />
    <path
       style="fill:none;fill-opacity:1;fill-rule:evenodd;stroke-width:0.16666673"
       d="m 36.458427,-6.0963565 v 1 h 5 v 4.99999997 h 1 V -6.0963565 Z"
       id="path1587"
       inkscape:connector-curvature="0" />
  </g>
  <g
     transform="rotate(-180,46.729239,18.379449)"
     id="pressed-bottomleft"
     style="fill:#192530;fill-opacity:1">
    <rect
       transform="scale(-1)"
       style="fill:#192530;fill-opacity:1;fill-rule:evenodd;stroke-width:0.16666673"
       class="ColorScheme-ButtonBackground"
       height="5.0000024"
       width="4.9999957"
       x="-41.458431"
       y="0.096356526"
       id="rect1591" />
    <path
       style="fill:none;fill-opacity:1;fill-rule:evenodd;stroke-width:0.16666673"
       d="m 36.458427,-6.0963565 v 1 h 5 v 4.99999997 h 1 V -6.0963565 Z"
       id="path1593"
       inkscape:connector-curvature="0" />
  </g>
</svg>
