<?xml version="1.0" encoding="UTF-8" standalone="no"?>
<!-- Created with Inkscape (http://www.inkscape.org/) -->

<svg
   xmlns:osb="http://www.openswatchbook.org/uri/2009/osb"
   xmlns:dc="http://purl.org/dc/elements/1.1/"
   xmlns:cc="http://creativecommons.org/ns#"
   xmlns:rdf="http://www.w3.org/1999/02/22-rdf-syntax-ns#"
   xmlns:svg="http://www.w3.org/2000/svg"
   xmlns="http://www.w3.org/2000/svg"
   xmlns:xlink="http://www.w3.org/1999/xlink"
   xmlns:sodipodi="http://sodipodi.sourceforge.net/DTD/sodipodi-0.dtd"
   xmlns:inkscape="http://www.inkscape.org/namespaces/inkscape"
   width="88.000008"
   height="46.000004"
   viewBox="0 0 88.000009 46.000002"
   version="1.1"
   id="svg8"
   inkscape:version="0.92.5 (2060ec1f9f, 2020-04-08)"
   sodipodi:docname="panel-background.svg">
  <sodipodi:namedview
     id="base"
     pagecolor="#ffffff"
     bordercolor="#666666"
     borderopacity="1.0"
     inkscape:pageopacity="0.0"
     inkscape:pageshadow="2"
     inkscape:zoom="10.316011"
     inkscape:cx="21.430829"
     inkscape:cy="38.596169"
     inkscape:document-units="px"
     inkscape:current-layer="layer1"
     showgrid="true"
     inkscape:pagecheckerboard="true"
     borderlayer="false"
     fit-margin-top="10"
     fit-margin-left="10"
     fit-margin-right="10"
     fit-margin-bottom="10"
     inkscape:showpageshadow="false"
     units="px"
     inkscape:snap-nodes="true"
     inkscape:snap-bbox="true"
     inkscape:bbox-paths="true"
     inkscape:bbox-nodes="true"
     inkscape:object-paths="true"
     inkscape:snap-intersection-paths="true">
    <inkscape:grid
       type="xygrid"
       id="grid894"
       originx="-25.999995"
       originy="-2.9999976" />
  </sodipodi:namedview>
  <defs
     id="defs2">
    <linearGradient
       inkscape:collect="always"
       id="linearGradient904">
      <stop
         style="stop-color:#000000;stop-opacity:0.73077232"
         offset="0"
         id="stop900" />
      <stop
         id="stop906"
         offset="0.33475298"
         style="stop-color:#000000;stop-opacity:0.48235294;" />
      <stop
         style="stop-color:#000000;stop-opacity:0"
         offset="1"
         id="stop902" />
    </linearGradient>
    <linearGradient
       id="linearGradient898"
       inkscape:collect="always">
      <stop
         id="stop894"
         offset="0"
         style="stop-color:#000000;stop-opacity:0.48235294" />
      <stop
         id="stop896"
         offset="1"
         style="stop-color:#000000;stop-opacity:0" />
    </linearGradient>
    <linearGradient
       id="linearGradient892"
       inkscape:collect="always">
      <stop
         id="stop888"
         offset="0"
         style="stop-color:#000000;stop-opacity:0.73077232" />
      <stop
         id="stop890"
         offset="1"
         style="stop-color:#000000;stop-opacity:0" />
    </linearGradient>
    <linearGradient
       id="background"
       osb:paint="solid">
      <stop
         style="stop-color:#11171c;stop-opacity:1;"
         offset="0"
         id="stop1518" />
    </linearGradient>
    <linearGradient
       inkscape:collect="always"
       xlink:href="#background"
       id="linearGradient1522"
       x1="18.273909"
       y1="221.95274"
       x2="26.740576"
       y2="221.95274"
       gradientUnits="userSpaceOnUse"
       gradientTransform="translate(23.999998,1.1515225)" />
    <linearGradient
       gradientTransform="translate(1.3030469,-23.284115)"
       inkscape:collect="always"
       xlink:href="#background"
       id="linearGradient1532"
       x1="217.71942"
       y1="-17.215572"
       x2="226.1861"
       y2="-17.215572"
       gradientUnits="userSpaceOnUse" />
    <linearGradient
       gradientTransform="translate(23.999996,4.8916178)"
       inkscape:collect="always"
       xlink:href="#background"
       id="linearGradient1536"
       x1="18.273907"
       y1="227.24442"
       x2="26.740574"
       y2="227.24442"
       gradientUnits="userSpaceOnUse" />
    <linearGradient
       gradientTransform="translate(1.3029026,-27.050753)"
       inkscape:collect="always"
       xlink:href="#background"
       id="linearGradient1560"
       x1="217.71942"
       y1="-27.798904"
       x2="226.1861"
       y2="-27.798904"
       gradientUnits="userSpaceOnUse" />
    <linearGradient
       gradientTransform="matrix(1,0,0,0.49999752,23.999994,110.02781)"
       gradientUnits="userSpaceOnUse"
       y2="215.60275"
       x2="26.740574"
       y1="215.60275"
       x1="18.273907"
       id="linearGradient1634"
       xlink:href="#background"
       inkscape:collect="always" />
    <linearGradient
       inkscape:collect="always"
       xlink:href="#background"
       id="linearGradient1576"
       gradientUnits="userSpaceOnUse"
       gradientTransform="matrix(0.24999891,0,0,1.0000005,161.82561,-27.050755)"
       x1="217.71942"
       y1="-27.798904"
       x2="226.1861"
       y2="-27.798904" />
    <linearGradient
       inkscape:collect="always"
       xlink:href="#background"
       id="linearGradient1580"
       gradientUnits="userSpaceOnUse"
       gradientTransform="matrix(0.24999876,0,0,0.99999926,161.82566,-10.050792)"
       x1="217.71942"
       y1="-27.798904"
       x2="226.1861"
       y2="-27.798904" />
    <linearGradient
       inkscape:collect="always"
       xlink:href="#background"
       id="linearGradient1584"
       gradientUnits="userSpaceOnUse"
       gradientTransform="matrix(0.2500001,0,0,1.0000005,178.82535,-27.050756)"
       x1="217.71942"
       y1="-27.798904"
       x2="226.1861"
       y2="-27.798904" />
    <linearGradient
       inkscape:collect="always"
       xlink:href="#background"
       id="linearGradient1588"
       gradientUnits="userSpaceOnUse"
       gradientTransform="matrix(0.24999995,0,0,0.99999926,178.82538,-10.050792)"
       x1="217.71942"
       y1="-27.798904"
       x2="226.1861"
       y2="-27.798904" />
    <linearGradient
       inkscape:collect="always"
       xlink:href="#linearGradient892"
       id="linearGradient1594"
       gradientUnits="userSpaceOnUse"
       gradientTransform="matrix(1.4173229,0,0,2.8346452,-199.50892,-119.81286)"
       x1="202.74213"
       y1="-40.111485"
       x2="202.74213"
       y2="-43.286476" />
    <linearGradient
       inkscape:collect="always"
       xlink:href="#linearGradient892"
       id="linearGradient1598"
       gradientUnits="userSpaceOnUse"
       gradientTransform="matrix(1.4173229,0,0,2.8346441,-66.836399,12.85962)"
       x1="202.74213"
       y1="-40.111485"
       x2="202.74213"
       y2="-43.286476" />
    <linearGradient
       inkscape:collect="always"
       xlink:href="#linearGradient892"
       id="linearGradient1602"
       gradientUnits="userSpaceOnUse"
       gradientTransform="matrix(1.4173229,0,0,2.8346467,-66.836397,200.54395)"
       x1="202.74213"
       y1="-40.111485"
       x2="202.74213"
       y2="-43.286476" />
    <linearGradient
       inkscape:collect="always"
       xlink:href="#linearGradient904"
       id="linearGradient875"
       x1="98.842117"
       y1="217.51463"
       x2="98.842117"
       y2="211.51463"
       gradientUnits="userSpaceOnUse"
       gradientTransform="matrix(1,0,0,1.4999981,0.99999809,-106.75692)" />
    <radialGradient
       inkscape:collect="always"
       xlink:href="#linearGradient898"
       id="radialGradient885"
       cx="99.842117"
       cy="217.51465"
       fx="99.842117"
       fy="217.51465"
       r="2.999999"
       gradientTransform="matrix(2.0000011,-3.1066009e-6,3.1065972e-6,2.0000016,-96.842892,-220.51469)"
       gradientUnits="userSpaceOnUse" />
    <linearGradient
       inkscape:collect="always"
       xlink:href="#linearGradient892"
       id="linearGradient909"
       gradientUnits="userSpaceOnUse"
       x1="98.842117"
       y1="217.51463"
       x2="98.842117"
       y2="211.51463"
       gradientTransform="matrix(0.25,0,0,1.5000006,78.131586,-108.75746)" />
    <linearGradient
       inkscape:collect="always"
       xlink:href="#linearGradient892"
       id="linearGradient913"
       gradientUnits="userSpaceOnUse"
       gradientTransform="matrix(0.25,0,0,1.5000001,192.8041,-426.11409)"
       x1="98.842117"
       y1="217.51463"
       x2="98.842117"
       y2="211.51463" />
    <radialGradient
       inkscape:collect="always"
       xlink:href="#linearGradient898"
       id="radialGradient944"
       gradientUnits="userSpaceOnUse"
       gradientTransform="matrix(2.0000004,-3.1066016e-6,3.1065962e-6,2.000002,-96.842834,-220.51479)"
       cx="99.842117"
       cy="217.51465"
       fx="99.842117"
       fy="217.51465"
       r="2.999999" />
    <linearGradient
       inkscape:collect="always"
       xlink:href="#linearGradient892"
       id="linearGradient946"
       gradientUnits="userSpaceOnUse"
       gradientTransform="matrix(0.25,0,0,1.5000009,78.131586,-108.7575)"
       x1="98.842117"
       y1="217.51463"
       x2="98.842117"
       y2="211.51463" />
    <linearGradient
       inkscape:collect="always"
       xlink:href="#linearGradient892"
       id="linearGradient948"
       gradientUnits="userSpaceOnUse"
       gradientTransform="matrix(0.25,0,0,1.4999997,192.8041,-426.114)"
       x1="98.842117"
       y1="217.51463"
       x2="98.842117"
       y2="211.51463" />
    <radialGradient
       inkscape:collect="always"
       xlink:href="#linearGradient898"
       id="radialGradient958"
       gradientUnits="userSpaceOnUse"
       gradientTransform="matrix(2.0000017,-3.1065964e-6,3.1065982e-6,1.9999987,-96.842961,-220.51408)"
       cx="99.842117"
       cy="217.51465"
       fx="99.842117"
       fy="217.51465"
       r="2.999999" />
    <linearGradient
       inkscape:collect="always"
       xlink:href="#linearGradient892"
       id="linearGradient960"
       gradientUnits="userSpaceOnUse"
       gradientTransform="matrix(0.25,0,0,1.4999992,78.131586,-108.75715)"
       x1="98.842117"
       y1="217.51463"
       x2="98.842117"
       y2="211.51463" />
    <linearGradient
       inkscape:collect="always"
       xlink:href="#linearGradient892"
       id="linearGradient962"
       gradientUnits="userSpaceOnUse"
       gradientTransform="matrix(0.25,0,0,1.5000004,192.8041,-426.11416)"
       x1="98.842117"
       y1="217.51463"
       x2="98.842117"
       y2="211.51463" />
    <radialGradient
       inkscape:collect="always"
       xlink:href="#linearGradient898"
       id="radialGradient972"
       gradientUnits="userSpaceOnUse"
       gradientTransform="matrix(2.0000004,-3.1066017e-6,3.1065962e-6,2.0000021,-96.842834,-220.5148)"
       cx="99.842117"
       cy="217.51465"
       fx="99.842117"
       fy="217.51465"
       r="2.999999" />
    <linearGradient
       inkscape:collect="always"
       xlink:href="#linearGradient892"
       id="linearGradient974"
       gradientUnits="userSpaceOnUse"
       gradientTransform="matrix(0.25,0,0,1.5000009,78.131586,-108.75751)"
       x1="98.842117"
       y1="217.51463"
       x2="98.842117"
       y2="211.51463" />
    <linearGradient
       inkscape:collect="always"
       xlink:href="#linearGradient892"
       id="linearGradient976"
       gradientUnits="userSpaceOnUse"
       gradientTransform="matrix(0.25,0,0,1.4999997,192.8041,-426.114)"
       x1="98.842117"
       y1="217.51463"
       x2="98.842117"
       y2="211.51463" />
  </defs>
  <metadata
     id="metadata5">
    <rdf:RDF>
      <cc:Work
         rdf:about="">
        <dc:format>image/svg+xml</dc:format>
        <dc:type
           rdf:resource="http://purl.org/dc/dcmitype/StillImage" />
        <dc:title />
      </cc:Work>
    </rdf:RDF>
  </metadata>
  <g
     id="layer1"
     inkscape:groupmode="layer"
     inkscape:label="Layer 1"
     transform="translate(-28.84211,-203.51463)">
    <rect
       y="220.51463"
       x="42.842113"
       height="12"
       width="12"
       id="center"
       style="opacity:1;fill:url(#linearGradient1522);fill-opacity:1;fill-rule:evenodd;stroke:none;stroke-width:0.06599882;stroke-linecap:butt;stroke-linejoin:round;stroke-miterlimit:4;stroke-dasharray:none;stroke-dashoffset:0;stroke-opacity:1;paint-order:normal" />
    <rect
       style="opacity:1;fill:url(#linearGradient1634);fill-opacity:1;fill-rule:evenodd;stroke:none;stroke-width:0.04666821;stroke-linecap:butt;stroke-linejoin:round;stroke-miterlimit:4;stroke-dasharray:none;stroke-dashoffset:0;stroke-opacity:1;paint-order:normal"
       id="top"
       width="12"
       height="2.999985"
       x="42.84211"
       y="216.70885" />
    <rect
       y="233.66615"
       x="42.84211"
       height="2.9999995"
       width="12"
       id="bottom"
       style="opacity:1;fill:url(#linearGradient1536);fill-opacity:1;fill-rule:evenodd;stroke:none;stroke-width:0.0466682;stroke-linecap:butt;stroke-linejoin:round;stroke-miterlimit:4;stroke-dasharray:none;stroke-dashoffset:0;stroke-opacity:1;paint-order:normal" />
    <rect
       transform="rotate(90)"
       style="opacity:1;fill:url(#linearGradient1560);fill-opacity:1;fill-rule:evenodd;stroke:none;stroke-width:0.04666821;stroke-linecap:butt;stroke-linejoin:round;stroke-miterlimit:4;stroke-dasharray:none;stroke-dashoffset:0;stroke-opacity:1;paint-order:normal"
       id="right"
       width="12.000008"
       height="3.0000019"
       x="220.66614"
       y="-58.842113" />
    <rect
       y="-41.84211"
       x="220.66615"
       height="2.9999981"
       width="12"
       id="left"
       style="opacity:1;fill:url(#linearGradient1532);fill-opacity:1;fill-rule:evenodd;stroke:none;stroke-width:0.04666821;stroke-linecap:butt;stroke-linejoin:round;stroke-miterlimit:4;stroke-dasharray:none;stroke-dashoffset:0;stroke-opacity:1;paint-order:normal"
       transform="rotate(90)" />
    <rect
       style="opacity:1;fill:#11171c;fill-opacity:1;fill-rule:evenodd;stroke:none;stroke-width:0.06599882;stroke-linecap:butt;stroke-linejoin:round;stroke-miterlimit:4;stroke-dasharray:none;stroke-dashoffset:0;stroke-opacity:1;paint-order:normal"
       id="shadow-center"
       width="12"
       height="12"
       x="87.842117"
       y="220.51463" />
    <rect
       y="-109.84212"
       x="220.51463"
       height="8.9999962"
       width="12"
       id="shadow-right"
       style="opacity:1;fill:url(#linearGradient1598);fill-opacity:1;fill-rule:evenodd;stroke:none;stroke-width:0.06599883;stroke-linecap:butt;stroke-linejoin:round;stroke-miterlimit:4;stroke-dasharray:none;stroke-dashoffset:0;stroke-opacity:1;paint-order:normal"
       transform="rotate(90)" />
    <rect
       y="220.51463"
       x="103.84211"
       height="1"
       width="5.9999976"
       id="shadow-hint-right-margin"
       style="opacity:1;fill:#00ff00;fill-opacity:1;fill-rule:evenodd;stroke:none;stroke-width:0.7547636;stroke-linecap:butt;stroke-linejoin:round;stroke-miterlimit:4;stroke-dasharray:none;stroke-dashoffset:0;stroke-opacity:1;paint-order:normal" />
    <rect
       transform="matrix(0,1,1,0,0,0)"
       style="opacity:1;fill:url(#linearGradient1602);fill-opacity:1;fill-rule:evenodd;stroke:none;stroke-width:0.06599882;stroke-linecap:butt;stroke-linejoin:round;stroke-miterlimit:4;stroke-dasharray:none;stroke-dashoffset:0;stroke-opacity:1;paint-order:normal"
       id="shadow-left"
       width="12"
       height="9.0000038"
       x="220.51463"
       y="77.84211" />
    <rect
       style="opacity:1;fill:#00ff00;fill-opacity:1;fill-rule:evenodd;stroke:none;stroke-width:0.6890018;stroke-linecap:butt;stroke-linejoin:round;stroke-miterlimit:4;stroke-dasharray:none;stroke-dashoffset:0;stroke-opacity:1;paint-order:normal"
       id="shadow-hint-left-margin"
       width="6.0000005"
       height="1"
       x="77.842117"
       y="231.51463" />
    <rect
       y="225.51463"
       x="67.97123"
       height="1.9377041"
       width="1.8708867"
       id="hint-stretch-borders"
       style="opacity:1;fill:#008080;fill-opacity:1;fill-rule:evenodd;stroke:none;stroke-width:0.5733521;stroke-linecap:butt;stroke-linejoin:round;stroke-miterlimit:4;stroke-dasharray:none;stroke-dashoffset:0;stroke-opacity:1;paint-order:normal" />
    <rect
       style="opacity:1;fill:#008080;fill-opacity:1;fill-rule:evenodd;stroke:none;stroke-width:0.5733521;stroke-linecap:butt;stroke-linejoin:round;stroke-miterlimit:4;stroke-dasharray:none;stroke-dashoffset:0;stroke-opacity:1;paint-order:normal"
       id="hint-tile-center"
       width="1.8708867"
       height="1.9377041"
       x="67.97123"
       y="230.57693" />
    <rect
       style="fill:#00ff80;fill-opacity:1;stroke:none;stroke-width:1"
       id="hint-top-margin"
       width="1"
       height="2.9999974"
       x="42.84211"
       y="216.70883" />
    <rect
       y="233.66615"
       x="53.84211"
       height="2.9999871"
       width="1"
       id="hint-bottom-margin"
       style="fill:#00ff80;fill-opacity:1;stroke:none;stroke-width:1" />
    <rect
       y="-58.842113"
       x="220.66615"
       height="3.0000019"
       width="1"
       id="hint-right-margin"
       style="fill:#00ff80;fill-opacity:1;stroke:none;stroke-width:1"
       transform="rotate(90)" />
    <rect
       style="fill:#00ff80;fill-opacity:1;stroke:none;stroke-width:1"
       id="hint-left-margin"
       width="1"
       height="3"
       x="231.66615"
       y="-41.84211"
       transform="rotate(90)" />
    <rect
       style="opacity:1;fill:url(#linearGradient875);fill-opacity:1;fill-rule:evenodd;stroke:none;stroke-width:0.06599882;stroke-linecap:butt;stroke-linejoin:round;stroke-miterlimit:4;stroke-dasharray:none;stroke-dashoffset:0;stroke-opacity:1;paint-order:normal"
       id="shadow-top"
       width="12"
       height="8.9999866"
       x="87.842117"
       y="210.51463" />
    <rect
       y="-58.842113"
       x="216.66615"
       height="3.0000019"
       width="2.9999869"
       id="topright"
       style="opacity:1;fill:url(#linearGradient1576);fill-opacity:1;fill-rule:evenodd;stroke:none;stroke-width:0.03299941;stroke-linecap:butt;stroke-linejoin:round;stroke-miterlimit:4;stroke-dasharray:none;stroke-dashoffset:0;stroke-opacity:1;paint-order:normal"
       transform="rotate(90)" />
    <rect
       transform="rotate(90)"
       style="opacity:1;fill:url(#linearGradient1580);fill-opacity:1;fill-rule:evenodd;stroke:none;stroke-width:0.03299941;stroke-linecap:butt;stroke-linejoin:round;stroke-miterlimit:4;stroke-dasharray:none;stroke-dashoffset:0;stroke-opacity:1;paint-order:normal"
       id="topleft"
       width="2.999985"
       height="2.9999981"
       x="216.66617"
       y="-41.84211" />
    <rect
       transform="rotate(90)"
       style="opacity:1;fill:url(#linearGradient1584);fill-opacity:1;fill-rule:evenodd;stroke:none;stroke-width:0.03299941;stroke-linecap:butt;stroke-linejoin:round;stroke-miterlimit:4;stroke-dasharray:none;stroke-dashoffset:0;stroke-opacity:1;paint-order:normal"
       id="bottomright"
       width="3.0000014"
       height="3.0000019"
       x="233.66615"
       y="-58.842113" />
    <rect
       transform="rotate(90)"
       style="opacity:1;fill:url(#linearGradient1588);fill-opacity:1;fill-rule:evenodd;stroke:none;stroke-width:0.03299941;stroke-linecap:butt;stroke-linejoin:round;stroke-miterlimit:4;stroke-dasharray:none;stroke-dashoffset:0;stroke-opacity:1;paint-order:normal"
       id="bottomleft"
       width="2.9999995"
       height="2.9999981"
       x="233.66615"
       y="-41.84211" />
    <rect
       y="-88.842117"
       x="210.51463"
       height="1"
       width="5.9999895"
       id="shadow-hint-top-margin"
       style="opacity:1;fill:#00ff00;fill-opacity:1;fill-rule:evenodd;stroke:none;stroke-width:0.75476366;stroke-linecap:butt;stroke-linejoin:round;stroke-miterlimit:4;stroke-dasharray:none;stroke-dashoffset:0;stroke-opacity:1;paint-order:normal"
       transform="rotate(90)" />
    <rect
       y="-242.51463"
       x="87.842117"
       height="9"
       width="12"
       id="shadow-bottom"
       style="opacity:1;fill:url(#linearGradient1594);fill-opacity:1;fill-rule:evenodd;stroke:none;stroke-width:0.06599882;stroke-linecap:butt;stroke-linejoin:round;stroke-miterlimit:4;stroke-dasharray:none;stroke-dashoffset:0;stroke-opacity:1;paint-order:normal"
       transform="scale(1,-1)" />
    <rect
       transform="rotate(90)"
       style="opacity:1;fill:#00ff00;fill-opacity:1;fill-rule:evenodd;stroke:none;stroke-width:0.7547636;stroke-linecap:butt;stroke-linejoin:round;stroke-miterlimit:4;stroke-dasharray:none;stroke-dashoffset:0;stroke-opacity:1;paint-order:normal"
       id="shadow-hint-bottom-margin"
       width="5.9999981"
       height="1"
       x="236.51463"
       y="-99.842117" />
    <g
       id="shadow-topright"
       transform="translate(0.99999809,2.0000014)">
      <rect
         style="opacity:1;fill:url(#radialGradient885);fill-opacity:1;fill-rule:evenodd;stroke:none;stroke-width:0.06599883;stroke-linecap:butt;stroke-linejoin:round;stroke-miterlimit:4;stroke-dasharray:none;stroke-dashoffset:0;stroke-opacity:1;paint-order:normal"
         id="rect920"
         width="5.9999995"
         height="6.0000048"
         x="102.84212"
         y="208.51463" />
      <rect
         style="opacity:1;fill:url(#linearGradient909);fill-opacity:1;fill-rule:evenodd;stroke:none;stroke-width:0.06599882;stroke-linecap:butt;stroke-linejoin:round;stroke-miterlimit:4;stroke-dasharray:none;stroke-dashoffset:0;stroke-opacity:1;paint-order:normal"
         id="rect907"
         width="3"
         height="9.0000019"
         x="99.842117"
         y="208.51462" />
      <rect
         transform="rotate(90)"
         y="-108.84212"
         x="214.51463"
         height="8.9999981"
         width="3"
         id="rect911"
         style="opacity:1;fill:url(#linearGradient913);fill-opacity:1;fill-rule:evenodd;stroke:none;stroke-width:0.06599882;stroke-linecap:butt;stroke-linejoin:round;stroke-miterlimit:4;stroke-dasharray:none;stroke-dashoffset:0;stroke-opacity:1;paint-order:normal" />
    </g>
    <g
       id="shadow-topleft"
       transform="matrix(-1,0,0,1,186.68423,2.0000027)">
      <rect
         y="208.51463"
         x="102.84211"
         height="6.0000057"
         width="5.9999976"
         id="rect936"
         style="opacity:1;fill:url(#radialGradient944);fill-opacity:1.0;fill-rule:evenodd;stroke:none;stroke-width:0.06599882;stroke-linecap:butt;stroke-linejoin:round;stroke-miterlimit:4;stroke-dasharray:none;stroke-dashoffset:0;stroke-opacity:1;paint-order:normal" />
      <rect
         y="208.51463"
         x="99.842117"
         height="9.0000029"
         width="3"
         id="rect938"
         style="opacity:1;fill:url(#linearGradient946);fill-opacity:1;fill-rule:evenodd;stroke:none;stroke-width:0.06599882;stroke-linecap:butt;stroke-linejoin:round;stroke-miterlimit:4;stroke-dasharray:none;stroke-dashoffset:0;stroke-opacity:1;paint-order:normal" />
      <rect
         style="opacity:1;fill:url(#linearGradient948);fill-opacity:1;fill-rule:evenodd;stroke:none;stroke-width:0.06599883;stroke-linecap:butt;stroke-linejoin:round;stroke-miterlimit:4;stroke-dasharray:none;stroke-dashoffset:0;stroke-opacity:1;paint-order:normal"
         id="rect940"
         width="3"
         height="8.9999962"
         x="214.51463"
         y="-108.84211"
         transform="rotate(90)" />
    </g>
    <g
       id="shadow-bottomright"
       transform="matrix(1,0,0,-1,0.99999618,451.02927)">
      <rect
         y="208.51463"
         x="102.84212"
         height="5.9999962"
         width="6.0000014"
         id="rect950"
         style="opacity:1;fill:url(#radialGradient958);fill-opacity:1.0;fill-rule:evenodd;stroke:none;stroke-width:0.06599883;stroke-linecap:butt;stroke-linejoin:round;stroke-miterlimit:4;stroke-dasharray:none;stroke-dashoffset:0;stroke-opacity:1;paint-order:normal" />
      <rect
         y="208.51463"
         x="99.842117"
         height="8.9999933"
         width="3"
         id="rect952"
         style="opacity:1;fill:url(#linearGradient960);fill-opacity:1;fill-rule:evenodd;stroke:none;stroke-width:0.06599882;stroke-linecap:butt;stroke-linejoin:round;stroke-miterlimit:4;stroke-dasharray:none;stroke-dashoffset:0;stroke-opacity:1;paint-order:normal" />
      <rect
         style="opacity:1;fill:url(#linearGradient962);fill-opacity:1;fill-rule:evenodd;stroke:none;stroke-width:0.06599883;stroke-linecap:butt;stroke-linejoin:round;stroke-miterlimit:4;stroke-dasharray:none;stroke-dashoffset:0;stroke-opacity:1;paint-order:normal"
         id="rect954"
         width="3"
         height="9"
         x="214.51463"
         y="-108.84212"
         transform="rotate(90)" />
    </g>
    <g
       id="shadow-bottomleft"
       transform="rotate(-180,93.342115,225.51463)">
      <rect
         y="208.51463"
         x="102.84211"
         height="6.0000062"
         width="5.9999976"
         id="rect964"
         style="opacity:1;fill:url(#radialGradient972);fill-opacity:1.0;fill-rule:evenodd;stroke:none;stroke-width:0.06599883;stroke-linecap:butt;stroke-linejoin:round;stroke-miterlimit:4;stroke-dasharray:none;stroke-dashoffset:0;stroke-opacity:1;paint-order:normal" />
      <rect
         y="208.51463"
         x="99.842117"
         height="9.0000029"
         width="3"
         id="rect966"
         style="opacity:1;fill:url(#linearGradient974);fill-opacity:1;fill-rule:evenodd;stroke:none;stroke-width:0.06599882;stroke-linecap:butt;stroke-linejoin:round;stroke-miterlimit:4;stroke-dasharray:none;stroke-dashoffset:0;stroke-opacity:1;paint-order:normal" />
      <rect
         style="opacity:1;fill:url(#linearGradient976);fill-opacity:1;fill-rule:evenodd;stroke:none;stroke-width:0.06599883;stroke-linecap:butt;stroke-linejoin:round;stroke-miterlimit:4;stroke-dasharray:none;stroke-dashoffset:0;stroke-opacity:1;paint-order:normal"
         id="rect968"
         width="3"
         height="8.9999962"
         x="214.51463"
         y="-108.84211"
         transform="rotate(90)" />
    </g>
  </g>
</svg>
